ARM GAS  /tmp/ccDVAA0L.s 			page 1


   1              		.syntax unified
   2              		.cpu cortex-m3
   3              		.fpu softvfp
   4              		.eabi_attribute 20, 1
   5              		.eabi_attribute 21, 1
   6              		.eabi_attribute 23, 3
   7              		.eabi_attribute 24, 1
   8              		.eabi_attribute 25, 1
   9              		.eabi_attribute 26, 1
  10              		.eabi_attribute 30, 2
  11              		.eabi_attribute 34, 1
  12              		.eabi_attribute 18, 4
  13              		.thumb
  14              		.file	"chheap.c"
  15              		.text
  16              	.Ltext0:
  17              		.cfi_sections	.debug_frame
  18              		.section	.text._heap_init,"ax",%progbits
  19              		.align	2
  20              		.p2align 4,,15
  21              		.global	_heap_init
  22              		.thumb
  23              		.thumb_func
  24              		.type	_heap_init, %function
  25              	_heap_init:
  26              	.LFB7:
  27              		.file 1 "../../os/kernel/src/chheap.c"
  28              		.loc 1 75 0
  29              		.cfi_startproc
  30              		@ args = 0, pretend = 0, frame = 0
  31              		@ frame_needed = 0, uses_anonymous_args = 0
  32              		@ link register save eliminated.
  33              		.loc 1 76 0
  34 0000 40F20003 		movw	r3, #:lower16:.LANCHOR0
  35 0004 C0F20003 		movt	r3, #:upper16:.LANCHOR0
  36 0008 40F20002 		movw	r2, #:lower16:chCoreAlloc
  37              		.loc 1 77 0
  38 000c 0021     		movs	r1, #0
  39              		.loc 1 76 0
  40 000e C0F20002 		movt	r2, #:upper16:chCoreAlloc
  41              		.loc 1 80 0
  42 0012 03F11000 		add	r0, r3, #16
  43              		.loc 1 76 0
  44 0016 1A60     		str	r2, [r3, #0]
  45              		.loc 1 77 0
  46 0018 9960     		str	r1, [r3, #8]
  47              		.loc 1 78 0
  48 001a D960     		str	r1, [r3, #12]
  49              		.loc 1 84 0
  50              		.loc 1 80 0
  51 001c FFF7FEBF 		b	chMtxInit
  52              		.cfi_endproc
  53              	.LFE7:
  54              		.size	_heap_init, .-_heap_init
  55              		.section	.text.chHeapInit,"ax",%progbits
  56              		.align	2
  57              		.p2align 4,,15
ARM GAS  /tmp/ccDVAA0L.s 			page 2


  58              		.global	chHeapInit
  59              		.thumb
  60              		.thumb_func
  61              		.type	chHeapInit, %function
  62              	chHeapInit:
  63              	.LFB8:
  64              		.loc 1 99 0
  65              		.cfi_startproc
  66              		@ args = 0, pretend = 0, frame = 0
  67              		@ frame_needed = 0, uses_anonymous_args = 0
  68              		@ link register save eliminated.
  69              	.LVL0:
  70              		.loc 1 104 0
  71 0000 0023     		movs	r3, #0
  72 0002 0360     		str	r3, [r0, #0]
  73              	.LVL1:
  74              		.loc 1 105 0
  75 0004 8160     		str	r1, [r0, #8]
  76              		.loc 1 106 0
  77 0006 C360     		str	r3, [r0, #12]
  78              		.loc 1 108 0
  79 0008 083A     		subs	r2, r2, #8
  80              	.LVL2:
  81              		.loc 1 110 0
  82 000a 1030     		adds	r0, r0, #16
  83              	.LVL3:
  84              		.loc 1 107 0
  85 000c 0B60     		str	r3, [r1, #0]
  86              		.loc 1 108 0
  87 000e 4A60     		str	r2, [r1, #4]
  88              		.loc 1 114 0
  89              		.loc 1 110 0
  90 0010 FFF7FEBF 		b	chMtxInit
  91              	.LVL4:
  92              	.LVL5:
  93              	.LVL6:
  94              	.LVL7:
  95              		.cfi_endproc
  96              	.LFE8:
  97              		.size	chHeapInit, .-chHeapInit
  98 0014 AFF30080 		.section	.text.chHeapAlloc,"ax",%progbits
  98      AFF30080 
  98      AFF30080 
  99              		.align	2
 100              		.p2align 4,,15
 101              		.global	chHeapAlloc
 102              		.thumb
 103              		.thumb_func
 104              		.type	chHeapAlloc, %function
 105              	chHeapAlloc:
 106              	.LFB9:
 107              		.loc 1 132 0
 108              		.cfi_startproc
 109              		@ args = 0, pretend = 0, frame = 0
 110              		@ frame_needed = 0, uses_anonymous_args = 0
 111              	.LVL8:
 112 0000 F8B5     		push	{r3, r4, r5, r6, r7, lr}
ARM GAS  /tmp/ccDVAA0L.s 			page 3


 113              	.LCFI0:
 114              		.cfi_def_cfa_offset 24
 115              		.cfi_offset 14, -4
 116              		.cfi_offset 7, -8
 117              		.cfi_offset 6, -12
 118              		.cfi_offset 5, -16
 119              		.cfi_offset 4, -20
 120              		.cfi_offset 3, -24
 121              		.loc 1 136 0
 122 0002 40F20004 		movw	r4, #:lower16:.LANCHOR0
 123 0006 C0F20004 		movt	r4, #:upper16:.LANCHOR0
 124 000a 0028     		cmp	r0, #0
 125 000c 18BF     		it	ne
 126 000e 0446     		movne	r4, r0
 127              		.loc 1 138 0
 128 0010 0731     		adds	r1, r1, #7
 129              	.LVL9:
 130              		.loc 1 140 0
 131 0012 04F11000 		add	r0, r4, #16
 132              	.LVL10:
 133              		.loc 1 138 0
 134 0016 21F00706 		bic	r6, r1, #7
 135              	.LVL11:
 136              		.loc 1 139 0
 137 001a 04F10805 		add	r5, r4, #8
 138              	.LVL12:
 139              		.loc 1 140 0
 140 001e FFF7FEFF 		bl	chMtxLock
 141              		.loc 1 142 0
 142 0022 00E0     		b	.L5
 143              	.LVL13:
 144              	.L11:
 145              		.loc 1 144 0
 146 0024 1D46     		mov	r5, r3
 147              	.LVL14:
 148              	.L5:
 149              		.loc 1 142 0 discriminator 1
 150 0026 2B68     		ldr	r3, [r5, #0]
 151 0028 03B3     		cbz	r3, .L14
 152              	.LVL15:
 153              		.loc 1 144 0
 154 002a 5A68     		ldr	r2, [r3, #4]
 155 002c 9642     		cmp	r6, r2
 156 002e F9D8     		bhi	.L11
 157              		.loc 1 145 0
 158 0030 06F10801 		add	r1, r6, #8
 159 0034 8A42     		cmp	r2, r1
 160 0036 16D3     		bcc	.L15
 161              		.loc 1 155 0
 162 0038 4FF6F877 		movw	r7, #65528
 163 003c CFF6FF77 		movt	r7, 65535
 164              		.loc 1 154 0
 165 0040 D3F800E0 		ldr	lr, [r3, #0]
 166              		.loc 1 155 0
 167 0044 C6EB070C 		rsb	ip, r6, r7
 168 0048 0CEB0200 		add	r0, ip, r2
 169              		.loc 1 153 0
ARM GAS  /tmp/ccDVAA0L.s 			page 4


 170 004c 5F18     		adds	r7, r3, r1
 171              	.LVL16:
 172              		.loc 1 154 0
 173 004e 43F801E0 		str	lr, [r3, r1]
 174              		.loc 1 155 0
 175 0052 7860     		str	r0, [r7, #4]
 176              		.loc 1 156 0
 177 0054 2F60     		str	r7, [r5, #0]
 178              		.loc 1 157 0
 179 0056 5E60     		str	r6, [r3, #4]
 180              	.LVL17:
 181              	.L7:
 182              		.loc 1 159 0
 183 0058 1D46     		mov	r5, r3
 184              	.LVL18:
 185 005a 45F8084B 		str	r4, [r5], #8
 186              		.loc 1 161 0
 187 005e FFF7FEFF 		bl	chMtxUnlock
 188              	.LVL19:
 189              	.L8:
 190              		.loc 1 181 0
 191 0062 2846     		mov	r0, r5
 192 0064 F8BD     		pop	{r3, r4, r5, r6, r7, pc}
 193              	.LVL20:
 194              	.L15:
 195              		.loc 1 149 0
 196 0066 1A68     		ldr	r2, [r3, #0]
 197 0068 2A60     		str	r2, [r5, #0]
 198 006a F5E7     		b	.L7
 199              	.LVL21:
 200              	.L14:
 201              		.loc 1 167 0
 202 006c FFF7FEFF 		bl	chMtxUnlock
 203              		.loc 1 171 0
 204 0070 2568     		ldr	r5, [r4, #0]
 205              	.LVL22:
 206 0072 002D     		cmp	r5, #0
 207 0074 F5D0     		beq	.L8
 208              		.loc 1 172 0
 209 0076 06F10800 		add	r0, r6, #8
 210 007a A847     		blx	r5
 211              	.LVL23:
 212              		.loc 1 173 0
 213 007c 0546     		mov	r5, r0
 214 007e 0028     		cmp	r0, #0
 215 0080 EFD0     		beq	.L8
 216              		.loc 1 177 0
 217 0082 00F10805 		add	r5, r0, #8
 218              		.loc 1 175 0
 219 0086 80E85000 		stmia	r0, {r4, r6}
 220              	.LVL24:
 221              		.loc 1 181 0
 222 008a 2846     		mov	r0, r5
 223 008c F8BD     		pop	{r3, r4, r5, r6, r7, pc}
 224              		.cfi_endproc
 225              	.LFE9:
 226              		.size	chHeapAlloc, .-chHeapAlloc
ARM GAS  /tmp/ccDVAA0L.s 			page 5


 227 008e 00BF     		.section	.text.chHeapFree,"ax",%progbits
 228              		.align	2
 229              		.p2align 4,,15
 230              		.global	chHeapFree
 231              		.thumb
 232              		.thumb_func
 233              		.type	chHeapFree, %function
 234              	chHeapFree:
 235              	.LFB10:
 236              		.loc 1 194 0
 237              		.cfi_startproc
 238              		@ args = 0, pretend = 0, frame = 0
 239              		@ frame_needed = 0, uses_anonymous_args = 0
 240              	.LVL25:
 241 0000 70B5     		push	{r4, r5, r6, lr}
 242              	.LCFI1:
 243              		.cfi_def_cfa_offset 16
 244              		.cfi_offset 14, -4
 245              		.cfi_offset 6, -8
 246              		.cfi_offset 5, -12
 247              		.cfi_offset 4, -16
 248              		.loc 1 194 0
 249 0002 0646     		mov	r6, r0
 250              		.loc 1 201 0
 251 0004 50F8080C 		ldr	r0, [r0, #-8]
 252              	.LVL26:
 253              		.loc 1 200 0
 254 0008 A6F10804 		sub	r4, r6, #8
 255              	.LVL27:
 256              		.loc 1 202 0
 257 000c 00F10805 		add	r5, r0, #8
 258              	.LVL28:
 259              		.loc 1 203 0
 260 0010 1030     		adds	r0, r0, #16
 261 0012 FFF7FEFF 		bl	chMtxLock
 262              	.LVL29:
 263              		.loc 1 202 0
 264 0016 2B46     		mov	r3, r5
 265              	.LVL30:
 266              	.L24:
 267              		.loc 1 210 0
 268 0018 591B     		subs	r1, r3, r5
 269 001a 4842     		rsbs	r0, r1, #0
 270 001c 40EB0102 		adc	r2, r0, r1
 271 0020 9C42     		cmp	r4, r3
 272 0022 88BF     		it	hi
 273 0024 42F00102 		orrhi	r2, r2, #1
 274 0028 72B1     		cbz	r2, .L17
 275              	.L25:
 276              		.loc 1 211 0 discriminator 1
 277 002a 1A68     		ldr	r2, [r3, #0]
 278              		.loc 1 210 0 discriminator 1
 279 002c 72B1     		cbz	r2, .L18
 280              		.loc 1 211 0
 281 002e 9442     		cmp	r4, r2
 282 0030 0CD3     		bcc	.L18
 283 0032 1346     		mov	r3, r2
ARM GAS  /tmp/ccDVAA0L.s 			page 6


 284              	.LVL31:
 285              		.loc 1 210 0
 286 0034 591B     		subs	r1, r3, r5
 287 0036 4842     		rsbs	r0, r1, #0
 288 0038 40EB0102 		adc	r2, r0, r1
 289              	.LVL32:
 290 003c 9C42     		cmp	r4, r3
 291 003e 88BF     		it	hi
 292 0040 42F00102 		orrhi	r2, r2, #1
 293 0044 002A     		cmp	r2, #0
 294 0046 F0D1     		bne	.L25
 295              	.L17:
 296              		.loc 1 224 0
 297 0048 1B68     		ldr	r3, [r3, #0]
 298              	.LVL33:
 299 004a E5E7     		b	.L24
 300              	.LVL34:
 301              	.L18:
 302              		.loc 1 216 0
 303 004c 56F8041C 		ldr	r1, [r6, #-4]
 304              		.loc 1 213 0
 305 0050 46F8082C 		str	r2, [r6, #-8]
 306              		.loc 1 214 0
 307 0054 1C60     		str	r4, [r3, #0]
 308              		.loc 1 216 0
 309 0056 01F10802 		add	r2, r1, #8
 310 005a 56F8085C 		ldr	r5, [r6, #-8]
 311              	.LVL35:
 312 005e A018     		adds	r0, r4, r2
 313 0060 A842     		cmp	r0, r5
 314 0062 0AD0     		beq	.L26
 315              		.loc 1 221 0
 316 0064 5A68     		ldr	r2, [r3, #4]
 317 0066 02F1080E 		add	lr, r2, #8
 318 006a 03EB0E0C 		add	ip, r3, lr
 319 006e 6445     		cmp	r4, ip
 320 0070 12D0     		beq	.L27
 321              	.L21:
 322              		.loc 1 233 0
 323 0072 BDE87040 		pop	{r4, r5, r6, lr}
 324              		.loc 1 231 0
 325 0076 FFF7FEBF 		b	chMtxUnlock
 326              	.LVL36:
 327              	.L26:
 328              		.loc 1 218 0
 329 007a 4068     		ldr	r0, [r0, #4]
 330              		.loc 1 219 0
 331 007c A258     		ldr	r2, [r4, r2]
 332              		.loc 1 218 0
 333 007e 0818     		adds	r0, r1, r0
 334 0080 0830     		adds	r0, r0, #8
 335 0082 46F8040C 		str	r0, [r6, #-4]
 336              		.loc 1 219 0
 337 0086 46F8082C 		str	r2, [r6, #-8]
 338              		.loc 1 221 0
 339 008a 5A68     		ldr	r2, [r3, #4]
 340 008c 02F1080E 		add	lr, r2, #8
ARM GAS  /tmp/ccDVAA0L.s 			page 7


 341 0090 03EB0E0C 		add	ip, r3, lr
 342 0094 6445     		cmp	r4, ip
 343 0096 ECD1     		bne	.L21
 344              	.L27:
 345              		.loc 1 223 0
 346 0098 56F8040C 		ldr	r0, [r6, #-4]
 347              		.loc 1 224 0
 348 009c 56F8081C 		ldr	r1, [r6, #-8]
 349              		.loc 1 223 0
 350 00a0 1218     		adds	r2, r2, r0
 351 00a2 0832     		adds	r2, r2, #8
 352              		.loc 1 224 0
 353 00a4 83E80600 		stmia	r3, {r1, r2}
 354 00a8 E3E7     		b	.L21
 355              		.cfi_endproc
 356              	.LFE10:
 357              		.size	chHeapFree, .-chHeapFree
 358              		.section	.text.chHeapStatus,"ax",%progbits
 359              		.align	2
 360              		.p2align 4,,15
 361              		.global	chHeapStatus
 362              		.thumb
 363              		.thumb_func
 364              		.type	chHeapStatus, %function
 365              	chHeapStatus:
 366              	.LFB11:
 367              		.loc 1 250 0
 368              		.cfi_startproc
 369              		@ args = 0, pretend = 0, frame = 0
 370              		@ frame_needed = 0, uses_anonymous_args = 0
 371              	.LVL37:
 372 0000 38B5     		push	{r3, r4, r5, lr}
 373              	.LCFI2:
 374              		.cfi_def_cfa_offset 16
 375              		.cfi_offset 14, -4
 376              		.cfi_offset 5, -8
 377              		.cfi_offset 4, -12
 378              		.cfi_offset 3, -16
 379              		.loc 1 255 0
 380 0002 40F20004 		movw	r4, #:lower16:.LANCHOR0
 381 0006 C0F20004 		movt	r4, #:upper16:.LANCHOR0
 382 000a 0028     		cmp	r0, #0
 383 000c 18BF     		it	ne
 384 000e 0446     		movne	r4, r0
 385              		.loc 1 257 0
 386 0010 04F11000 		add	r0, r4, #16
 387              	.LVL38:
 388              		.loc 1 250 0
 389 0014 0D46     		mov	r5, r1
 390              		.loc 1 257 0
 391 0016 FFF7FEFF 		bl	chMtxLock
 392              	.LVL39:
 393              		.loc 1 260 0
 394 001a A368     		ldr	r3, [r4, #8]
 395              		.loc 1 259 0
 396 001c 1A46     		mov	r2, r3
 397              		.loc 1 260 0
ARM GAS  /tmp/ccDVAA0L.s 			page 8


 398 001e 1C46     		mov	r4, r3
 399 0020 3BB1     		cbz	r3, .L30
 400 0022 0022     		movs	r2, #0
 401 0024 1446     		mov	r4, r2
 402              	.LVL40:
 403              	.L31:
 404              		.loc 1 261 0 discriminator 2
 405 0026 5968     		ldr	r1, [r3, #4]
 406              		.loc 1 260 0 discriminator 2
 407 0028 1B68     		ldr	r3, [r3, #0]
 408              		.loc 1 261 0 discriminator 2
 409 002a 5218     		adds	r2, r2, r1
 410              	.LVL41:
 411              		.loc 1 260 0 discriminator 2
 412 002c 0134     		adds	r4, r4, #1
 413              	.LVL42:
 414 002e 002B     		cmp	r3, #0
 415 0030 F9D1     		bne	.L31
 416              	.LVL43:
 417              	.L30:
 418              		.loc 1 262 0
 419 0032 05B1     		cbz	r5, .L32
 420              		.loc 1 263 0
 421 0034 2A60     		str	r2, [r5, #0]
 422              	.L32:
 423              		.loc 1 265 0
 424 0036 FFF7FEFF 		bl	chMtxUnlock
 425              		.loc 1 267 0
 426 003a 2046     		mov	r0, r4
 427 003c 38BD     		pop	{r3, r4, r5, pc}
 428              		.cfi_endproc
 429              	.LFE11:
 430              		.size	chHeapStatus, .-chHeapStatus
 431 003e 00BF     		.section	.bss.default_heap,"aw",%nobits
 432              		.align	3
 433              		.set	.LANCHOR0,. + 0
 434              		.type	default_heap, %object
 435              		.size	default_heap, 32
 436              	default_heap:
 437 0000 00000000 		.space	32
 437      00000000 
 437      00000000 
 437      00000000 
 437      00000000 
 438              		.text
 439              	.Letext0:
 440              		.file 2 "/home/laura/Documentos/Embebidos/arm-2011q3/bin/../lib/gcc/arm-none-eabi/4.6.1/include/st
 441              		.file 3 "/home/laura/Documentos/Embebidos/arm-2011q3/bin/../lib/gcc/arm-none-eabi/4.6.1/../../../.
 442              		.file 4 "../../os/ports/GCC/ARMCMx/chtypes.h"
 443              		.file 5 "../../os/kernel/include/chlists.h"
 444              		.file 6 "../../os/kernel/include/chthreads.h"
 445              		.file 7 "../../os/ports/GCC/ARMCMx/chcore_v7m.h"
 446              		.file 8 "../../os/kernel/include/chmtx.h"
 447              		.file 9 "../../os/kernel/include/chmemcore.h"
 448              		.file 10 "../../os/kernel/include/chheap.h"
 449              		.section	.debug_info,"",%progbits
 450              	.Ldebug_info0:
ARM GAS  /tmp/ccDVAA0L.s 			page 9


 451 0000 36060000 		.4byte	0x636
 452 0004 0200     		.2byte	0x2
 453 0006 00000000 		.4byte	.Ldebug_abbrev0
 454 000a 04       		.byte	0x4
 455 000b 01       		.uleb128 0x1
 456 000c 71020000 		.4byte	.LASF72
 457 0010 01       		.byte	0x1
 458 0011 B2000000 		.4byte	.LASF73
 459 0015 9C010000 		.4byte	.LASF74
 460 0019 00000000 		.4byte	0
 461 001d 00000000 		.4byte	0
 462 0021 00000000 		.4byte	.Ldebug_ranges0+0
 463 0025 00000000 		.4byte	.Ldebug_line0
 464 0029 02       		.uleb128 0x2
 465 002a 04       		.byte	0x4
 466 002b 05       		.byte	0x5
 467 002c 696E7400 		.ascii	"int\000"
 468 0030 03       		.uleb128 0x3
 469 0031 06000000 		.4byte	.LASF2
 470 0035 02       		.byte	0x2
 471 0036 D4       		.byte	0xd4
 472 0037 3B000000 		.4byte	0x3b
 473 003b 04       		.uleb128 0x4
 474 003c 04       		.byte	0x4
 475 003d 07       		.byte	0x7
 476 003e EF000000 		.4byte	.LASF0
 477 0042 04       		.uleb128 0x4
 478 0043 01       		.byte	0x1
 479 0044 06       		.byte	0x6
 480 0045 7C000000 		.4byte	.LASF1
 481 0049 03       		.uleb128 0x3
 482 004a DD020000 		.4byte	.LASF3
 483 004e 03       		.byte	0x3
 484 004f 2A       		.byte	0x2a
 485 0050 54000000 		.4byte	0x54
 486 0054 04       		.uleb128 0x4
 487 0055 01       		.byte	0x1
 488 0056 08       		.byte	0x8
 489 0057 F3010000 		.4byte	.LASF4
 490 005b 04       		.uleb128 0x4
 491 005c 02       		.byte	0x2
 492 005d 05       		.byte	0x5
 493 005e 16020000 		.4byte	.LASF5
 494 0062 04       		.uleb128 0x4
 495 0063 02       		.byte	0x2
 496 0064 07       		.byte	0x7
 497 0065 1B010000 		.4byte	.LASF6
 498 0069 03       		.uleb128 0x3
 499 006a EB010000 		.4byte	.LASF7
 500 006e 03       		.byte	0x3
 501 006f 4F       		.byte	0x4f
 502 0070 74000000 		.4byte	0x74
 503 0074 04       		.uleb128 0x4
 504 0075 04       		.byte	0x4
 505 0076 05       		.byte	0x5
 506 0077 A9000000 		.4byte	.LASF8
 507 007b 03       		.uleb128 0x3
ARM GAS  /tmp/ccDVAA0L.s 			page 10


 508 007c 68020000 		.4byte	.LASF9
 509 0080 03       		.byte	0x3
 510 0081 50       		.byte	0x50
 511 0082 86000000 		.4byte	0x86
 512 0086 04       		.uleb128 0x4
 513 0087 04       		.byte	0x4
 514 0088 07       		.byte	0x7
 515 0089 FC000000 		.4byte	.LASF10
 516 008d 04       		.uleb128 0x4
 517 008e 08       		.byte	0x8
 518 008f 05       		.byte	0x5
 519 0090 6E000000 		.4byte	.LASF11
 520 0094 03       		.uleb128 0x3
 521 0095 14000000 		.4byte	.LASF12
 522 0099 03       		.byte	0x3
 523 009a 78       		.byte	0x78
 524 009b 9F000000 		.4byte	0x9f
 525 009f 04       		.uleb128 0x4
 526 00a0 08       		.byte	0x8
 527 00a1 07       		.byte	0x7
 528 00a2 2A000000 		.4byte	.LASF13
 529 00a6 03       		.uleb128 0x3
 530 00a7 34010000 		.4byte	.LASF14
 531 00ab 04       		.byte	0x4
 532 00ac 2F       		.byte	0x2f
 533 00ad 49000000 		.4byte	0x49
 534 00b1 03       		.uleb128 0x3
 535 00b2 CF000000 		.4byte	.LASF15
 536 00b6 04       		.byte	0x4
 537 00b7 30       		.byte	0x30
 538 00b8 49000000 		.4byte	0x49
 539 00bc 03       		.uleb128 0x3
 540 00bd 85010000 		.4byte	.LASF16
 541 00c1 04       		.byte	0x4
 542 00c2 31       		.byte	0x31
 543 00c3 49000000 		.4byte	0x49
 544 00c7 03       		.uleb128 0x3
 545 00c8 94010000 		.4byte	.LASF17
 546 00cc 04       		.byte	0x4
 547 00cd 32       		.byte	0x32
 548 00ce 7B000000 		.4byte	0x7b
 549 00d2 03       		.uleb128 0x3
 550 00d3 2E010000 		.4byte	.LASF18
 551 00d7 04       		.byte	0x4
 552 00d8 33       		.byte	0x33
 553 00d9 69000000 		.4byte	0x69
 554 00dd 03       		.uleb128 0x3
 555 00de 48010000 		.4byte	.LASF19
 556 00e2 04       		.byte	0x4
 557 00e3 35       		.byte	0x35
 558 00e4 7B000000 		.4byte	0x7b
 559 00e8 03       		.uleb128 0x3
 560 00e9 A8020000 		.4byte	.LASF20
 561 00ed 04       		.byte	0x4
 562 00ee 36       		.byte	0x36
 563 00ef 7B000000 		.4byte	0x7b
 564 00f3 03       		.uleb128 0x3
ARM GAS  /tmp/ccDVAA0L.s 			page 11


 565 00f4 4A020000 		.4byte	.LASF21
 566 00f8 05       		.byte	0x5
 567 00f9 2A       		.byte	0x2a
 568 00fa FE000000 		.4byte	0xfe
 569 00fe 05       		.uleb128 0x5
 570 00ff 4A020000 		.4byte	.LASF21
 571 0103 48       		.byte	0x48
 572 0104 06       		.byte	0x6
 573 0105 5E       		.byte	0x5e
 574 0106 15020000 		.4byte	0x215
 575 010a 06       		.uleb128 0x6
 576 010b 3B020000 		.4byte	.LASF22
 577 010f 06       		.byte	0x6
 578 0110 5F       		.byte	0x5f
 579 0111 3A020000 		.4byte	0x23a
 580 0115 02       		.byte	0x2
 581 0116 23       		.byte	0x23
 582 0117 00       		.uleb128 0
 583 0118 06       		.uleb128 0x6
 584 0119 8D010000 		.4byte	.LASF23
 585 011d 06       		.byte	0x6
 586 011e 61       		.byte	0x61
 587 011f 3A020000 		.4byte	0x23a
 588 0123 02       		.byte	0x2
 589 0124 23       		.byte	0x23
 590 0125 04       		.uleb128 0x4
 591 0126 06       		.uleb128 0x6
 592 0127 67000000 		.4byte	.LASF24
 593 012b 06       		.byte	0x6
 594 012c 63       		.byte	0x63
 595 012d C7000000 		.4byte	0xc7
 596 0131 02       		.byte	0x2
 597 0132 23       		.byte	0x23
 598 0133 08       		.uleb128 0x8
 599 0134 06       		.uleb128 0x6
 600 0135 0C030000 		.4byte	.LASF25
 601 0139 06       		.byte	0x6
 602 013a 64       		.byte	0x64
 603 013b 12030000 		.4byte	0x312
 604 013f 02       		.byte	0x2
 605 0140 23       		.byte	0x23
 606 0141 0C       		.uleb128 0xc
 607 0142 06       		.uleb128 0x6
 608 0143 D8000000 		.4byte	.LASF26
 609 0147 06       		.byte	0x6
 610 0148 66       		.byte	0x66
 611 0149 3A020000 		.4byte	0x23a
 612 014d 02       		.byte	0x2
 613 014e 23       		.byte	0x23
 614 014f 10       		.uleb128 0x10
 615 0150 06       		.uleb128 0x6
 616 0151 65010000 		.4byte	.LASF27
 617 0155 06       		.byte	0x6
 618 0156 67       		.byte	0x67
 619 0157 3A020000 		.4byte	0x23a
 620 015b 02       		.byte	0x2
 621 015c 23       		.byte	0x23
ARM GAS  /tmp/ccDVAA0L.s 			page 12


 622 015d 14       		.uleb128 0x14
 623 015e 06       		.uleb128 0x6
 624 015f F2020000 		.4byte	.LASF28
 625 0163 06       		.byte	0x6
 626 0164 6E       		.byte	0x6e
 627 0165 89040000 		.4byte	0x489
 628 0169 02       		.byte	0x2
 629 016a 23       		.byte	0x23
 630 016b 18       		.uleb128 0x18
 631 016c 06       		.uleb128 0x6
 632 016d 20020000 		.4byte	.LASF29
 633 0171 06       		.byte	0x6
 634 0172 79       		.byte	0x79
 635 0173 B1000000 		.4byte	0xb1
 636 0177 02       		.byte	0x2
 637 0178 23       		.byte	0x23
 638 0179 1C       		.uleb128 0x1c
 639 017a 06       		.uleb128 0x6
 640 017b 42020000 		.4byte	.LASF30
 641 017f 06       		.byte	0x6
 642 0180 7D       		.byte	0x7d
 643 0181 A6000000 		.4byte	0xa6
 644 0185 02       		.byte	0x2
 645 0186 23       		.byte	0x23
 646 0187 1D       		.uleb128 0x1d
 647 0188 06       		.uleb128 0x6
 648 0189 D6020000 		.4byte	.LASF31
 649 018d 06       		.byte	0x6
 650 018e 82       		.byte	0x82
 651 018f BC000000 		.4byte	0xbc
 652 0193 02       		.byte	0x2
 653 0194 23       		.byte	0x23
 654 0195 1E       		.uleb128 0x1e
 655 0196 06       		.uleb128 0x6
 656 0197 BD020000 		.4byte	.LASF32
 657 019b 06       		.byte	0x6
 658 019c 89       		.byte	0x89
 659 019d 35030000 		.4byte	0x335
 660 01a1 02       		.byte	0x2
 661 01a2 23       		.byte	0x23
 662 01a3 20       		.uleb128 0x20
 663 01a4 07       		.uleb128 0x7
 664 01a5 705F7500 		.ascii	"p_u\000"
 665 01a9 06       		.byte	0x6
 666 01aa AE       		.byte	0xae
 667 01ab 54040000 		.4byte	0x454
 668 01af 02       		.byte	0x2
 669 01b0 23       		.byte	0x23
 670 01b1 24       		.uleb128 0x24
 671 01b2 06       		.uleb128 0x6
 672 01b3 12030000 		.4byte	.LASF33
 673 01b7 06       		.byte	0x6
 674 01b8 B3       		.byte	0xb3
 675 01b9 62020000 		.4byte	0x262
 676 01bd 02       		.byte	0x2
 677 01be 23       		.byte	0x23
 678 01bf 28       		.uleb128 0x28
ARM GAS  /tmp/ccDVAA0L.s 			page 13


 679 01c0 06       		.uleb128 0x6
 680 01c1 CB020000 		.4byte	.LASF34
 681 01c5 06       		.byte	0x6
 682 01c6 B9       		.byte	0xb9
 683 01c7 40020000 		.4byte	0x240
 684 01cb 02       		.byte	0x2
 685 01cc 23       		.byte	0x23
 686 01cd 2C       		.uleb128 0x2c
 687 01ce 06       		.uleb128 0x6
 688 01cf 00000000 		.4byte	.LASF35
 689 01d3 06       		.byte	0x6
 690 01d4 BD       		.byte	0xbd
 691 01d5 D2000000 		.4byte	0xd2
 692 01d9 02       		.byte	0x2
 693 01da 23       		.byte	0x23
 694 01db 34       		.uleb128 0x34
 695 01dc 06       		.uleb128 0x6
 696 01dd 5D020000 		.4byte	.LASF36
 697 01e1 06       		.byte	0x6
 698 01e2 C3       		.byte	0xc3
 699 01e3 DD000000 		.4byte	0xdd
 700 01e7 02       		.byte	0x2
 701 01e8 23       		.byte	0x23
 702 01e9 38       		.uleb128 0x38
 703 01ea 06       		.uleb128 0x6
 704 01eb 0C020000 		.4byte	.LASF37
 705 01ef 06       		.byte	0x6
 706 01f0 CA       		.byte	0xca
 707 01f1 9B040000 		.4byte	0x49b
 708 01f5 02       		.byte	0x2
 709 01f6 23       		.byte	0x23
 710 01f7 3C       		.uleb128 0x3c
 711 01f8 06       		.uleb128 0x6
 712 01f9 B2020000 		.4byte	.LASF38
 713 01fd 06       		.byte	0x6
 714 01fe CE       		.byte	0xce
 715 01ff C7000000 		.4byte	0xc7
 716 0203 02       		.byte	0x2
 717 0204 23       		.byte	0x23
 718 0205 40       		.uleb128 0x40
 719 0206 06       		.uleb128 0x6
 720 0207 8E000000 		.4byte	.LASF39
 721 020b 06       		.byte	0x6
 722 020c D4       		.byte	0xd4
 723 020d 78020000 		.4byte	0x278
 724 0211 02       		.byte	0x2
 725 0212 23       		.byte	0x23
 726 0213 44       		.uleb128 0x44
 727 0214 00       		.byte	0
 728 0215 08       		.uleb128 0x8
 729 0216 08       		.byte	0x8
 730 0217 05       		.byte	0x5
 731 0218 61       		.byte	0x61
 732 0219 3A020000 		.4byte	0x23a
 733 021d 06       		.uleb128 0x6
 734 021e 3B020000 		.4byte	.LASF22
 735 0222 05       		.byte	0x5
ARM GAS  /tmp/ccDVAA0L.s 			page 14


 736 0223 62       		.byte	0x62
 737 0224 3A020000 		.4byte	0x23a
 738 0228 02       		.byte	0x2
 739 0229 23       		.byte	0x23
 740 022a 00       		.uleb128 0
 741 022b 06       		.uleb128 0x6
 742 022c 8D010000 		.4byte	.LASF23
 743 0230 05       		.byte	0x5
 744 0231 64       		.byte	0x64
 745 0232 3A020000 		.4byte	0x23a
 746 0236 02       		.byte	0x2
 747 0237 23       		.byte	0x23
 748 0238 04       		.uleb128 0x4
 749 0239 00       		.byte	0
 750 023a 09       		.uleb128 0x9
 751 023b 04       		.byte	0x4
 752 023c F3000000 		.4byte	0xf3
 753 0240 03       		.uleb128 0x3
 754 0241 6D010000 		.4byte	.LASF40
 755 0245 05       		.byte	0x5
 756 0246 66       		.byte	0x66
 757 0247 15020000 		.4byte	0x215
 758 024b 08       		.uleb128 0x8
 759 024c 04       		.byte	0x4
 760 024d 05       		.byte	0x5
 761 024e 6B       		.byte	0x6b
 762 024f 62020000 		.4byte	0x262
 763 0253 06       		.uleb128 0x6
 764 0254 3B020000 		.4byte	.LASF22
 765 0258 05       		.byte	0x5
 766 0259 6D       		.byte	0x6d
 767 025a 3A020000 		.4byte	0x23a
 768 025e 02       		.byte	0x2
 769 025f 23       		.byte	0x23
 770 0260 00       		.uleb128 0
 771 0261 00       		.byte	0
 772 0262 03       		.uleb128 0x3
 773 0263 3C010000 		.4byte	.LASF41
 774 0267 05       		.byte	0x5
 775 0268 70       		.byte	0x70
 776 0269 4B020000 		.4byte	0x24b
 777 026d 03       		.uleb128 0x3
 778 026e E0000000 		.4byte	.LASF42
 779 0272 07       		.byte	0x7
 780 0273 D7       		.byte	0xd7
 781 0274 78020000 		.4byte	0x278
 782 0278 0A       		.uleb128 0xa
 783 0279 04       		.byte	0x4
 784 027a 03       		.uleb128 0x3
 785 027b 5A010000 		.4byte	.LASF43
 786 027f 07       		.byte	0x7
 787 0280 DD       		.byte	0xdd
 788 0281 94000000 		.4byte	0x94
 789 0285 05       		.uleb128 0x5
 790 0286 C4020000 		.4byte	.LASF44
 791 028a 24       		.byte	0x24
 792 028b 07       		.byte	0x7
ARM GAS  /tmp/ccDVAA0L.s 			page 15


 793 028c FE       		.byte	0xfe
 794 028d 12030000 		.4byte	0x312
 795 0291 0B       		.uleb128 0xb
 796 0292 723400   		.ascii	"r4\000"
 797 0295 07       		.byte	0x7
 798 0296 1101     		.2byte	0x111
 799 0298 6D020000 		.4byte	0x26d
 800 029c 02       		.byte	0x2
 801 029d 23       		.byte	0x23
 802 029e 00       		.uleb128 0
 803 029f 0B       		.uleb128 0xb
 804 02a0 723500   		.ascii	"r5\000"
 805 02a3 07       		.byte	0x7
 806 02a4 1201     		.2byte	0x112
 807 02a6 6D020000 		.4byte	0x26d
 808 02aa 02       		.byte	0x2
 809 02ab 23       		.byte	0x23
 810 02ac 04       		.uleb128 0x4
 811 02ad 0B       		.uleb128 0xb
 812 02ae 723600   		.ascii	"r6\000"
 813 02b1 07       		.byte	0x7
 814 02b2 1301     		.2byte	0x113
 815 02b4 6D020000 		.4byte	0x26d
 816 02b8 02       		.byte	0x2
 817 02b9 23       		.byte	0x23
 818 02ba 08       		.uleb128 0x8
 819 02bb 0B       		.uleb128 0xb
 820 02bc 723700   		.ascii	"r7\000"
 821 02bf 07       		.byte	0x7
 822 02c0 1401     		.2byte	0x114
 823 02c2 6D020000 		.4byte	0x26d
 824 02c6 02       		.byte	0x2
 825 02c7 23       		.byte	0x23
 826 02c8 0C       		.uleb128 0xc
 827 02c9 0B       		.uleb128 0xb
 828 02ca 723800   		.ascii	"r8\000"
 829 02cd 07       		.byte	0x7
 830 02ce 1501     		.2byte	0x115
 831 02d0 6D020000 		.4byte	0x26d
 832 02d4 02       		.byte	0x2
 833 02d5 23       		.byte	0x23
 834 02d6 10       		.uleb128 0x10
 835 02d7 0B       		.uleb128 0xb
 836 02d8 723900   		.ascii	"r9\000"
 837 02db 07       		.byte	0x7
 838 02dc 1601     		.2byte	0x116
 839 02de 6D020000 		.4byte	0x26d
 840 02e2 02       		.byte	0x2
 841 02e3 23       		.byte	0x23
 842 02e4 14       		.uleb128 0x14
 843 02e5 0B       		.uleb128 0xb
 844 02e6 72313000 		.ascii	"r10\000"
 845 02ea 07       		.byte	0x7
 846 02eb 1701     		.2byte	0x117
 847 02ed 6D020000 		.4byte	0x26d
 848 02f1 02       		.byte	0x2
 849 02f2 23       		.byte	0x23
ARM GAS  /tmp/ccDVAA0L.s 			page 16


 850 02f3 18       		.uleb128 0x18
 851 02f4 0B       		.uleb128 0xb
 852 02f5 72313100 		.ascii	"r11\000"
 853 02f9 07       		.byte	0x7
 854 02fa 1801     		.2byte	0x118
 855 02fc 6D020000 		.4byte	0x26d
 856 0300 02       		.byte	0x2
 857 0301 23       		.byte	0x23
 858 0302 1C       		.uleb128 0x1c
 859 0303 0B       		.uleb128 0xb
 860 0304 6C7200   		.ascii	"lr\000"
 861 0307 07       		.byte	0x7
 862 0308 1901     		.2byte	0x119
 863 030a 6D020000 		.4byte	0x26d
 864 030e 02       		.byte	0x2
 865 030f 23       		.byte	0x23
 866 0310 20       		.uleb128 0x20
 867 0311 00       		.byte	0
 868 0312 0C       		.uleb128 0xc
 869 0313 0E010000 		.4byte	.LASF45
 870 0317 04       		.byte	0x4
 871 0318 07       		.byte	0x7
 872 0319 2301     		.2byte	0x123
 873 031b 2F030000 		.4byte	0x32f
 874 031f 0B       		.uleb128 0xb
 875 0320 72313300 		.ascii	"r13\000"
 876 0324 07       		.byte	0x7
 877 0325 2401     		.2byte	0x124
 878 0327 2F030000 		.4byte	0x32f
 879 032b 02       		.byte	0x2
 880 032c 23       		.byte	0x23
 881 032d 00       		.uleb128 0
 882 032e 00       		.byte	0
 883 032f 09       		.uleb128 0x9
 884 0330 04       		.byte	0x4
 885 0331 85020000 		.4byte	0x285
 886 0335 0D       		.uleb128 0xd
 887 0336 E8000000 		.4byte	0xe8
 888 033a 05       		.uleb128 0x5
 889 033b 54010000 		.4byte	.LASF46
 890 033f 10       		.byte	0x10
 891 0340 08       		.byte	0x8
 892 0341 2C       		.byte	0x2c
 893 0342 71030000 		.4byte	0x371
 894 0346 06       		.uleb128 0x6
 895 0347 96000000 		.4byte	.LASF47
 896 034b 08       		.byte	0x8
 897 034c 2D       		.byte	0x2d
 898 034d 40020000 		.4byte	0x240
 899 0351 02       		.byte	0x2
 900 0352 23       		.byte	0x23
 901 0353 00       		.uleb128 0
 902 0354 06       		.uleb128 0x6
 903 0355 04030000 		.4byte	.LASF48
 904 0359 08       		.byte	0x8
 905 035a 2F       		.byte	0x2f
 906 035b 3A020000 		.4byte	0x23a
ARM GAS  /tmp/ccDVAA0L.s 			page 17


 907 035f 02       		.byte	0x2
 908 0360 23       		.byte	0x23
 909 0361 08       		.uleb128 0x8
 910 0362 06       		.uleb128 0x6
 911 0363 A1020000 		.4byte	.LASF49
 912 0367 08       		.byte	0x8
 913 0368 31       		.byte	0x31
 914 0369 71030000 		.4byte	0x371
 915 036d 02       		.byte	0x2
 916 036e 23       		.byte	0x23
 917 036f 0C       		.uleb128 0xc
 918 0370 00       		.byte	0
 919 0371 09       		.uleb128 0x9
 920 0372 04       		.byte	0x4
 921 0373 3A030000 		.4byte	0x33a
 922 0377 03       		.uleb128 0x3
 923 0378 54010000 		.4byte	.LASF46
 924 037c 08       		.byte	0x8
 925 037d 33       		.byte	0x33
 926 037e 3A030000 		.4byte	0x33a
 927 0382 03       		.uleb128 0x3
 928 0383 1D000000 		.4byte	.LASF50
 929 0387 09       		.byte	0x9
 930 0388 2C       		.byte	0x2c
 931 0389 8D030000 		.4byte	0x38d
 932 038d 09       		.uleb128 0x9
 933 038e 04       		.byte	0x4
 934 038f 93030000 		.4byte	0x393
 935 0393 0E       		.uleb128 0xe
 936 0394 01       		.byte	0x1
 937 0395 78020000 		.4byte	0x278
 938 0399 A3030000 		.4byte	0x3a3
 939 039d 0F       		.uleb128 0xf
 940 039e 30000000 		.4byte	0x30
 941 03a2 00       		.byte	0
 942 03a3 03       		.uleb128 0x3
 943 03a4 7A010000 		.4byte	.LASF51
 944 03a8 0A       		.byte	0xa
 945 03a9 34       		.byte	0x34
 946 03aa AE030000 		.4byte	0x3ae
 947 03ae 05       		.uleb128 0x5
 948 03af 1C030000 		.4byte	.LASF52
 949 03b3 20       		.byte	0x20
 950 03b4 0A       		.byte	0xa
 951 03b5 47       		.byte	0x47
 952 03b6 E5030000 		.4byte	0x3e5
 953 03ba 06       		.uleb128 0x6
 954 03bb 01020000 		.4byte	.LASF53
 955 03bf 0A       		.byte	0xa
 956 03c0 48       		.byte	0x48
 957 03c1 82030000 		.4byte	0x382
 958 03c5 02       		.byte	0x2
 959 03c6 23       		.byte	0x23
 960 03c7 00       		.uleb128 0
 961 03c8 06       		.uleb128 0x6
 962 03c9 4A000000 		.4byte	.LASF54
 963 03cd 0A       		.byte	0xa
ARM GAS  /tmp/ccDVAA0L.s 			page 18


 964 03ce 4A       		.byte	0x4a
 965 03cf 04040000 		.4byte	0x404
 966 03d3 02       		.byte	0x2
 967 03d4 23       		.byte	0x23
 968 03d5 08       		.uleb128 0x8
 969 03d6 06       		.uleb128 0x6
 970 03d7 88000000 		.4byte	.LASF55
 971 03db 0A       		.byte	0xa
 972 03dc 4C       		.byte	0x4c
 973 03dd 77030000 		.4byte	0x377
 974 03e1 02       		.byte	0x2
 975 03e2 23       		.byte	0x23
 976 03e3 10       		.uleb128 0x10
 977 03e4 00       		.byte	0
 978 03e5 10       		.uleb128 0x10
 979 03e6 04       		.byte	0x4
 980 03e7 0A       		.byte	0xa
 981 03e8 3C       		.byte	0x3c
 982 03e9 04040000 		.4byte	0x404
 983 03ed 11       		.uleb128 0x11
 984 03ee 62000000 		.4byte	.LASF56
 985 03f2 0A       		.byte	0xa
 986 03f3 3D       		.byte	0x3d
 987 03f4 25040000 		.4byte	0x425
 988 03f8 11       		.uleb128 0x11
 989 03f9 7D020000 		.4byte	.LASF57
 990 03fd 0A       		.byte	0xa
 991 03fe 3E       		.byte	0x3e
 992 03ff 2B040000 		.4byte	0x42b
 993 0403 00       		.byte	0
 994 0404 12       		.uleb128 0x12
 995 0405 28020000 		.4byte	.LASF75
 996 0409 08       		.byte	0x8
 997 040a 0A       		.byte	0xa
 998 040b 39       		.byte	0x39
 999 040c 25040000 		.4byte	0x425
 1000 0410 11       		.uleb128 0x11
 1001 0411 E9000000 		.4byte	.LASF58
 1002 0415 0A       		.byte	0xa
 1003 0416 3A       		.byte	0x3a
 1004 0417 7A020000 		.4byte	0x27a
 1005 041b 13       		.uleb128 0x13
 1006 041c 6800     		.ascii	"h\000"
 1007 041e 0A       		.byte	0xa
 1008 041f 41       		.byte	0x41
 1009 0420 31040000 		.4byte	0x431
 1010 0424 00       		.byte	0
 1011 0425 09       		.uleb128 0x9
 1012 0426 04       		.byte	0x4
 1013 0427 04040000 		.4byte	0x404
 1014 042b 09       		.uleb128 0x9
 1015 042c 04       		.byte	0x4
 1016 042d A3030000 		.4byte	0x3a3
 1017 0431 08       		.uleb128 0x8
 1018 0432 08       		.byte	0x8
 1019 0433 0A       		.byte	0xa
 1020 0434 3B       		.byte	0x3b
ARM GAS  /tmp/ccDVAA0L.s 			page 19


 1021 0435 54040000 		.4byte	0x454
 1022 0439 07       		.uleb128 0x7
 1023 043a 7500     		.ascii	"u\000"
 1024 043c 0A       		.byte	0xa
 1025 043d 3F       		.byte	0x3f
 1026 043e E5030000 		.4byte	0x3e5
 1027 0442 02       		.byte	0x2
 1028 0443 23       		.byte	0x23
 1029 0444 00       		.uleb128 0
 1030 0445 06       		.uleb128 0x6
 1031 0446 16010000 		.4byte	.LASF59
 1032 044a 0A       		.byte	0xa
 1033 044b 40       		.byte	0x40
 1034 044c 30000000 		.4byte	0x30
 1035 0450 02       		.byte	0x2
 1036 0451 23       		.byte	0x23
 1037 0452 04       		.uleb128 0x4
 1038 0453 00       		.byte	0
 1039 0454 10       		.uleb128 0x10
 1040 0455 04       		.byte	0x4
 1041 0456 06       		.byte	0x6
 1042 0457 90       		.byte	0x90
 1043 0458 89040000 		.4byte	0x489
 1044 045c 11       		.uleb128 0x11
 1045 045d 0D000000 		.4byte	.LASF60
 1046 0461 06       		.byte	0x6
 1047 0462 97       		.byte	0x97
 1048 0463 D2000000 		.4byte	0xd2
 1049 0467 11       		.uleb128 0x11
 1050 0468 41000000 		.4byte	.LASF61
 1051 046c 06       		.byte	0x6
 1052 046d 9E       		.byte	0x9e
 1053 046e D2000000 		.4byte	0xd2
 1054 0472 11       		.uleb128 0x11
 1055 0473 E5020000 		.4byte	.LASF62
 1056 0477 06       		.byte	0x6
 1057 0478 A5       		.byte	0xa5
 1058 0479 78020000 		.4byte	0x278
 1059 047d 11       		.uleb128 0x11
 1060 047e 34020000 		.4byte	.LASF63
 1061 0482 06       		.byte	0x6
 1062 0483 AC       		.byte	0xac
 1063 0484 DD000000 		.4byte	0xdd
 1064 0488 00       		.byte	0
 1065 0489 09       		.uleb128 0x9
 1066 048a 04       		.byte	0x4
 1067 048b 8F040000 		.4byte	0x48f
 1068 048f 14       		.uleb128 0x14
 1069 0490 94040000 		.4byte	0x494
 1070 0494 04       		.uleb128 0x4
 1071 0495 01       		.byte	0x1
 1072 0496 08       		.byte	0x8
 1073 0497 8F020000 		.4byte	.LASF64
 1074 049b 09       		.uleb128 0x9
 1075 049c 04       		.byte	0x4
 1076 049d 77030000 		.4byte	0x377
 1077 04a1 15       		.uleb128 0x15
ARM GAS  /tmp/ccDVAA0L.s 			page 20


 1078 04a2 01       		.byte	0x1
 1079 04a3 F9020000 		.4byte	.LASF76
 1080 04a7 01       		.byte	0x1
 1081 04a8 4B       		.byte	0x4b
 1082 04a9 01       		.byte	0x1
 1083 04aa 00000000 		.4byte	.LFB7
 1084 04ae 20000000 		.4byte	.LFE7
 1085 04b2 02       		.byte	0x2
 1086 04b3 7D       		.byte	0x7d
 1087 04b4 00       		.sleb128 0
 1088 04b5 16       		.uleb128 0x16
 1089 04b6 01       		.byte	0x1
 1090 04b7 57000000 		.4byte	.LASF66
 1091 04bb 01       		.byte	0x1
 1092 04bc 63       		.byte	0x63
 1093 04bd 01       		.byte	0x1
 1094 04be 00000000 		.4byte	.LFB8
 1095 04c2 14000000 		.4byte	.LFE8
 1096 04c6 02       		.byte	0x2
 1097 04c7 7D       		.byte	0x7d
 1098 04c8 00       		.sleb128 0
 1099 04c9 09050000 		.4byte	0x509
 1100 04cd 17       		.uleb128 0x17
 1101 04ce 51000000 		.4byte	.LASF65
 1102 04d2 01       		.byte	0x1
 1103 04d3 63       		.byte	0x63
 1104 04d4 2B040000 		.4byte	0x42b
 1105 04d8 00000000 		.4byte	.LLST0
 1106 04dc 18       		.uleb128 0x18
 1107 04dd 62756600 		.ascii	"buf\000"
 1108 04e1 01       		.byte	0x1
 1109 04e2 63       		.byte	0x63
 1110 04e3 78020000 		.4byte	0x278
 1111 04e7 20000000 		.4byte	.LLST1
 1112 04eb 17       		.uleb128 0x17
 1113 04ec 16010000 		.4byte	.LASF59
 1114 04f0 01       		.byte	0x1
 1115 04f1 63       		.byte	0x63
 1116 04f2 30000000 		.4byte	0x30
 1117 04f6 33000000 		.4byte	.LLST2
 1118 04fa 19       		.uleb128 0x19
 1119 04fb 687000   		.ascii	"hp\000"
 1120 04fe 01       		.byte	0x1
 1121 04ff 64       		.byte	0x64
 1122 0500 25040000 		.4byte	0x425
 1123 0504 53000000 		.4byte	.LLST3
 1124 0508 00       		.byte	0
 1125 0509 1A       		.uleb128 0x1a
 1126 050a 01       		.byte	0x1
 1127 050b 51020000 		.4byte	.LASF68
 1128 050f 01       		.byte	0x1
 1129 0510 84       		.byte	0x84
 1130 0511 01       		.byte	0x1
 1131 0512 78020000 		.4byte	0x278
 1132 0516 00000000 		.4byte	.LFB9
 1133 051a 8E000000 		.4byte	.LFE9
 1134 051e 66000000 		.4byte	.LLST4
ARM GAS  /tmp/ccDVAA0L.s 			page 21


 1135 0522 6F050000 		.4byte	0x56f
 1136 0526 17       		.uleb128 0x17
 1137 0527 51000000 		.4byte	.LASF65
 1138 052b 01       		.byte	0x1
 1139 052c 84       		.byte	0x84
 1140 052d 2B040000 		.4byte	0x42b
 1141 0531 86000000 		.4byte	.LLST5
 1142 0535 17       		.uleb128 0x17
 1143 0536 16010000 		.4byte	.LASF59
 1144 053a 01       		.byte	0x1
 1145 053b 84       		.byte	0x84
 1146 053c 30000000 		.4byte	0x30
 1147 0540 99000000 		.4byte	.LLST6
 1148 0544 19       		.uleb128 0x19
 1149 0545 717000   		.ascii	"qp\000"
 1150 0548 01       		.byte	0x1
 1151 0549 85       		.byte	0x85
 1152 054a 25040000 		.4byte	0x425
 1153 054e C4000000 		.4byte	.LLST7
 1154 0552 19       		.uleb128 0x19
 1155 0553 687000   		.ascii	"hp\000"
 1156 0556 01       		.byte	0x1
 1157 0557 85       		.byte	0x85
 1158 0558 25040000 		.4byte	0x425
 1159 055c E2000000 		.4byte	.LLST8
 1160 0560 19       		.uleb128 0x19
 1161 0561 667000   		.ascii	"fp\000"
 1162 0564 01       		.byte	0x1
 1163 0565 85       		.byte	0x85
 1164 0566 25040000 		.4byte	0x425
 1165 056a 3A010000 		.4byte	.LLST9
 1166 056e 00       		.byte	0
 1167 056f 1B       		.uleb128 0x1b
 1168 0570 01       		.byte	0x1
 1169 0571 9E000000 		.4byte	.LASF67
 1170 0575 01       		.byte	0x1
 1171 0576 C2       		.byte	0xc2
 1172 0577 01       		.byte	0x1
 1173 0578 00000000 		.4byte	.LFB10
 1174 057c AA000000 		.4byte	.LFE10
 1175 0580 4D010000 		.4byte	.LLST10
 1176 0584 C1050000 		.4byte	0x5c1
 1177 0588 18       		.uleb128 0x18
 1178 0589 7000     		.ascii	"p\000"
 1179 058b 01       		.byte	0x1
 1180 058c C2       		.byte	0xc2
 1181 058d 78020000 		.4byte	0x278
 1182 0591 6D010000 		.4byte	.LLST11
 1183 0595 19       		.uleb128 0x19
 1184 0596 717000   		.ascii	"qp\000"
 1185 0599 01       		.byte	0x1
 1186 059a C3       		.byte	0xc3
 1187 059b 25040000 		.4byte	0x425
 1188 059f 8B010000 		.4byte	.LLST12
 1189 05a3 1C       		.uleb128 0x1c
 1190 05a4 687000   		.ascii	"hp\000"
 1191 05a7 01       		.byte	0x1
ARM GAS  /tmp/ccDVAA0L.s 			page 22


 1192 05a8 C3       		.byte	0xc3
 1193 05a9 25040000 		.4byte	0x425
 1194 05ad 03       		.byte	0x3
 1195 05ae 76       		.byte	0x76
 1196 05af 78       		.sleb128 -8
 1197 05b0 9F       		.byte	0x9f
 1198 05b1 1D       		.uleb128 0x1d
 1199 05b2 51000000 		.4byte	.LASF65
 1200 05b6 01       		.byte	0x1
 1201 05b7 C4       		.byte	0xc4
 1202 05b8 2B040000 		.4byte	0x42b
 1203 05bc D5010000 		.4byte	.LLST13
 1204 05c0 00       		.byte	0
 1205 05c1 1A       		.uleb128 0x1a
 1206 05c2 01       		.byte	0x1
 1207 05c3 94020000 		.4byte	.LASF69
 1208 05c7 01       		.byte	0x1
 1209 05c8 FA       		.byte	0xfa
 1210 05c9 01       		.byte	0x1
 1211 05ca 30000000 		.4byte	0x30
 1212 05ce 00000000 		.4byte	.LFB11
 1213 05d2 3E000000 		.4byte	.LFE11
 1214 05d6 F6010000 		.4byte	.LLST14
 1215 05da 22060000 		.4byte	0x622
 1216 05de 17       		.uleb128 0x17
 1217 05df 51000000 		.4byte	.LASF65
 1218 05e3 01       		.byte	0x1
 1219 05e4 FA       		.byte	0xfa
 1220 05e5 2B040000 		.4byte	0x42b
 1221 05e9 16020000 		.4byte	.LLST15
 1222 05ed 17       		.uleb128 0x17
 1223 05ee EC020000 		.4byte	.LASF70
 1224 05f2 01       		.byte	0x1
 1225 05f3 FA       		.byte	0xfa
 1226 05f4 22060000 		.4byte	0x622
 1227 05f8 29020000 		.4byte	.LLST16
 1228 05fc 1E       		.uleb128 0x1e
 1229 05fd 717000   		.ascii	"qp\000"
 1230 0600 01       		.byte	0x1
 1231 0601 FB       		.byte	0xfb
 1232 0602 25040000 		.4byte	0x425
 1233 0606 19       		.uleb128 0x19
 1234 0607 6E00     		.ascii	"n\000"
 1235 0609 01       		.byte	0x1
 1236 060a FC       		.byte	0xfc
 1237 060b 30000000 		.4byte	0x30
 1238 060f 47020000 		.4byte	.LLST17
 1239 0613 19       		.uleb128 0x19
 1240 0614 737A00   		.ascii	"sz\000"
 1241 0617 01       		.byte	0x1
 1242 0618 FC       		.byte	0xfc
 1243 0619 30000000 		.4byte	0x30
 1244 061d 66020000 		.4byte	.LLST18
 1245 0621 00       		.byte	0
 1246 0622 09       		.uleb128 0x9
 1247 0623 04       		.byte	0x4
 1248 0624 30000000 		.4byte	0x30
ARM GAS  /tmp/ccDVAA0L.s 			page 23


 1249 0628 1F       		.uleb128 0x1f
 1250 0629 82020000 		.4byte	.LASF71
 1251 062d 01       		.byte	0x1
 1252 062e 44       		.byte	0x44
 1253 062f A3030000 		.4byte	0x3a3
 1254 0633 05       		.byte	0x5
 1255 0634 03       		.byte	0x3
 1256 0635 00000000 		.4byte	default_heap
 1257 0639 00       		.byte	0
 1258              		.section	.debug_abbrev,"",%progbits
 1259              	.Ldebug_abbrev0:
 1260 0000 01       		.uleb128 0x1
 1261 0001 11       		.uleb128 0x11
 1262 0002 01       		.byte	0x1
 1263 0003 25       		.uleb128 0x25
 1264 0004 0E       		.uleb128 0xe
 1265 0005 13       		.uleb128 0x13
 1266 0006 0B       		.uleb128 0xb
 1267 0007 03       		.uleb128 0x3
 1268 0008 0E       		.uleb128 0xe
 1269 0009 1B       		.uleb128 0x1b
 1270 000a 0E       		.uleb128 0xe
 1271 000b 11       		.uleb128 0x11
 1272 000c 01       		.uleb128 0x1
 1273 000d 52       		.uleb128 0x52
 1274 000e 01       		.uleb128 0x1
 1275 000f 55       		.uleb128 0x55
 1276 0010 06       		.uleb128 0x6
 1277 0011 10       		.uleb128 0x10
 1278 0012 06       		.uleb128 0x6
 1279 0013 00       		.byte	0
 1280 0014 00       		.byte	0
 1281 0015 02       		.uleb128 0x2
 1282 0016 24       		.uleb128 0x24
 1283 0017 00       		.byte	0
 1284 0018 0B       		.uleb128 0xb
 1285 0019 0B       		.uleb128 0xb
 1286 001a 3E       		.uleb128 0x3e
 1287 001b 0B       		.uleb128 0xb
 1288 001c 03       		.uleb128 0x3
 1289 001d 08       		.uleb128 0x8
 1290 001e 00       		.byte	0
 1291 001f 00       		.byte	0
 1292 0020 03       		.uleb128 0x3
 1293 0021 16       		.uleb128 0x16
 1294 0022 00       		.byte	0
 1295 0023 03       		.uleb128 0x3
 1296 0024 0E       		.uleb128 0xe
 1297 0025 3A       		.uleb128 0x3a
 1298 0026 0B       		.uleb128 0xb
 1299 0027 3B       		.uleb128 0x3b
 1300 0028 0B       		.uleb128 0xb
 1301 0029 49       		.uleb128 0x49
 1302 002a 13       		.uleb128 0x13
 1303 002b 00       		.byte	0
 1304 002c 00       		.byte	0
 1305 002d 04       		.uleb128 0x4
ARM GAS  /tmp/ccDVAA0L.s 			page 24


 1306 002e 24       		.uleb128 0x24
 1307 002f 00       		.byte	0
 1308 0030 0B       		.uleb128 0xb
 1309 0031 0B       		.uleb128 0xb
 1310 0032 3E       		.uleb128 0x3e
 1311 0033 0B       		.uleb128 0xb
 1312 0034 03       		.uleb128 0x3
 1313 0035 0E       		.uleb128 0xe
 1314 0036 00       		.byte	0
 1315 0037 00       		.byte	0
 1316 0038 05       		.uleb128 0x5
 1317 0039 13       		.uleb128 0x13
 1318 003a 01       		.byte	0x1
 1319 003b 03       		.uleb128 0x3
 1320 003c 0E       		.uleb128 0xe
 1321 003d 0B       		.uleb128 0xb
 1322 003e 0B       		.uleb128 0xb
 1323 003f 3A       		.uleb128 0x3a
 1324 0040 0B       		.uleb128 0xb
 1325 0041 3B       		.uleb128 0x3b
 1326 0042 0B       		.uleb128 0xb
 1327 0043 01       		.uleb128 0x1
 1328 0044 13       		.uleb128 0x13
 1329 0045 00       		.byte	0
 1330 0046 00       		.byte	0
 1331 0047 06       		.uleb128 0x6
 1332 0048 0D       		.uleb128 0xd
 1333 0049 00       		.byte	0
 1334 004a 03       		.uleb128 0x3
 1335 004b 0E       		.uleb128 0xe
 1336 004c 3A       		.uleb128 0x3a
 1337 004d 0B       		.uleb128 0xb
 1338 004e 3B       		.uleb128 0x3b
 1339 004f 0B       		.uleb128 0xb
 1340 0050 49       		.uleb128 0x49
 1341 0051 13       		.uleb128 0x13
 1342 0052 38       		.uleb128 0x38
 1343 0053 0A       		.uleb128 0xa
 1344 0054 00       		.byte	0
 1345 0055 00       		.byte	0
 1346 0056 07       		.uleb128 0x7
 1347 0057 0D       		.uleb128 0xd
 1348 0058 00       		.byte	0
 1349 0059 03       		.uleb128 0x3
 1350 005a 08       		.uleb128 0x8
 1351 005b 3A       		.uleb128 0x3a
 1352 005c 0B       		.uleb128 0xb
 1353 005d 3B       		.uleb128 0x3b
 1354 005e 0B       		.uleb128 0xb
 1355 005f 49       		.uleb128 0x49
 1356 0060 13       		.uleb128 0x13
 1357 0061 38       		.uleb128 0x38
 1358 0062 0A       		.uleb128 0xa
 1359 0063 00       		.byte	0
 1360 0064 00       		.byte	0
 1361 0065 08       		.uleb128 0x8
 1362 0066 13       		.uleb128 0x13
ARM GAS  /tmp/ccDVAA0L.s 			page 25


 1363 0067 01       		.byte	0x1
 1364 0068 0B       		.uleb128 0xb
 1365 0069 0B       		.uleb128 0xb
 1366 006a 3A       		.uleb128 0x3a
 1367 006b 0B       		.uleb128 0xb
 1368 006c 3B       		.uleb128 0x3b
 1369 006d 0B       		.uleb128 0xb
 1370 006e 01       		.uleb128 0x1
 1371 006f 13       		.uleb128 0x13
 1372 0070 00       		.byte	0
 1373 0071 00       		.byte	0
 1374 0072 09       		.uleb128 0x9
 1375 0073 0F       		.uleb128 0xf
 1376 0074 00       		.byte	0
 1377 0075 0B       		.uleb128 0xb
 1378 0076 0B       		.uleb128 0xb
 1379 0077 49       		.uleb128 0x49
 1380 0078 13       		.uleb128 0x13
 1381 0079 00       		.byte	0
 1382 007a 00       		.byte	0
 1383 007b 0A       		.uleb128 0xa
 1384 007c 0F       		.uleb128 0xf
 1385 007d 00       		.byte	0
 1386 007e 0B       		.uleb128 0xb
 1387 007f 0B       		.uleb128 0xb
 1388 0080 00       		.byte	0
 1389 0081 00       		.byte	0
 1390 0082 0B       		.uleb128 0xb
 1391 0083 0D       		.uleb128 0xd
 1392 0084 00       		.byte	0
 1393 0085 03       		.uleb128 0x3
 1394 0086 08       		.uleb128 0x8
 1395 0087 3A       		.uleb128 0x3a
 1396 0088 0B       		.uleb128 0xb
 1397 0089 3B       		.uleb128 0x3b
 1398 008a 05       		.uleb128 0x5
 1399 008b 49       		.uleb128 0x49
 1400 008c 13       		.uleb128 0x13
 1401 008d 38       		.uleb128 0x38
 1402 008e 0A       		.uleb128 0xa
 1403 008f 00       		.byte	0
 1404 0090 00       		.byte	0
 1405 0091 0C       		.uleb128 0xc
 1406 0092 13       		.uleb128 0x13
 1407 0093 01       		.byte	0x1
 1408 0094 03       		.uleb128 0x3
 1409 0095 0E       		.uleb128 0xe
 1410 0096 0B       		.uleb128 0xb
 1411 0097 0B       		.uleb128 0xb
 1412 0098 3A       		.uleb128 0x3a
 1413 0099 0B       		.uleb128 0xb
 1414 009a 3B       		.uleb128 0x3b
 1415 009b 05       		.uleb128 0x5
 1416 009c 01       		.uleb128 0x1
 1417 009d 13       		.uleb128 0x13
 1418 009e 00       		.byte	0
 1419 009f 00       		.byte	0
ARM GAS  /tmp/ccDVAA0L.s 			page 26


 1420 00a0 0D       		.uleb128 0xd
 1421 00a1 35       		.uleb128 0x35
 1422 00a2 00       		.byte	0
 1423 00a3 49       		.uleb128 0x49
 1424 00a4 13       		.uleb128 0x13
 1425 00a5 00       		.byte	0
 1426 00a6 00       		.byte	0
 1427 00a7 0E       		.uleb128 0xe
 1428 00a8 15       		.uleb128 0x15
 1429 00a9 01       		.byte	0x1
 1430 00aa 27       		.uleb128 0x27
 1431 00ab 0C       		.uleb128 0xc
 1432 00ac 49       		.uleb128 0x49
 1433 00ad 13       		.uleb128 0x13
 1434 00ae 01       		.uleb128 0x1
 1435 00af 13       		.uleb128 0x13
 1436 00b0 00       		.byte	0
 1437 00b1 00       		.byte	0
 1438 00b2 0F       		.uleb128 0xf
 1439 00b3 05       		.uleb128 0x5
 1440 00b4 00       		.byte	0
 1441 00b5 49       		.uleb128 0x49
 1442 00b6 13       		.uleb128 0x13
 1443 00b7 00       		.byte	0
 1444 00b8 00       		.byte	0
 1445 00b9 10       		.uleb128 0x10
 1446 00ba 17       		.uleb128 0x17
 1447 00bb 01       		.byte	0x1
 1448 00bc 0B       		.uleb128 0xb
 1449 00bd 0B       		.uleb128 0xb
 1450 00be 3A       		.uleb128 0x3a
 1451 00bf 0B       		.uleb128 0xb
 1452 00c0 3B       		.uleb128 0x3b
 1453 00c1 0B       		.uleb128 0xb
 1454 00c2 01       		.uleb128 0x1
 1455 00c3 13       		.uleb128 0x13
 1456 00c4 00       		.byte	0
 1457 00c5 00       		.byte	0
 1458 00c6 11       		.uleb128 0x11
 1459 00c7 0D       		.uleb128 0xd
 1460 00c8 00       		.byte	0
 1461 00c9 03       		.uleb128 0x3
 1462 00ca 0E       		.uleb128 0xe
 1463 00cb 3A       		.uleb128 0x3a
 1464 00cc 0B       		.uleb128 0xb
 1465 00cd 3B       		.uleb128 0x3b
 1466 00ce 0B       		.uleb128 0xb
 1467 00cf 49       		.uleb128 0x49
 1468 00d0 13       		.uleb128 0x13
 1469 00d1 00       		.byte	0
 1470 00d2 00       		.byte	0
 1471 00d3 12       		.uleb128 0x12
 1472 00d4 17       		.uleb128 0x17
 1473 00d5 01       		.byte	0x1
 1474 00d6 03       		.uleb128 0x3
 1475 00d7 0E       		.uleb128 0xe
 1476 00d8 0B       		.uleb128 0xb
ARM GAS  /tmp/ccDVAA0L.s 			page 27


 1477 00d9 0B       		.uleb128 0xb
 1478 00da 3A       		.uleb128 0x3a
 1479 00db 0B       		.uleb128 0xb
 1480 00dc 3B       		.uleb128 0x3b
 1481 00dd 0B       		.uleb128 0xb
 1482 00de 01       		.uleb128 0x1
 1483 00df 13       		.uleb128 0x13
 1484 00e0 00       		.byte	0
 1485 00e1 00       		.byte	0
 1486 00e2 13       		.uleb128 0x13
 1487 00e3 0D       		.uleb128 0xd
 1488 00e4 00       		.byte	0
 1489 00e5 03       		.uleb128 0x3
 1490 00e6 08       		.uleb128 0x8
 1491 00e7 3A       		.uleb128 0x3a
 1492 00e8 0B       		.uleb128 0xb
 1493 00e9 3B       		.uleb128 0x3b
 1494 00ea 0B       		.uleb128 0xb
 1495 00eb 49       		.uleb128 0x49
 1496 00ec 13       		.uleb128 0x13
 1497 00ed 00       		.byte	0
 1498 00ee 00       		.byte	0
 1499 00ef 14       		.uleb128 0x14
 1500 00f0 26       		.uleb128 0x26
 1501 00f1 00       		.byte	0
 1502 00f2 49       		.uleb128 0x49
 1503 00f3 13       		.uleb128 0x13
 1504 00f4 00       		.byte	0
 1505 00f5 00       		.byte	0
 1506 00f6 15       		.uleb128 0x15
 1507 00f7 2E       		.uleb128 0x2e
 1508 00f8 00       		.byte	0
 1509 00f9 3F       		.uleb128 0x3f
 1510 00fa 0C       		.uleb128 0xc
 1511 00fb 03       		.uleb128 0x3
 1512 00fc 0E       		.uleb128 0xe
 1513 00fd 3A       		.uleb128 0x3a
 1514 00fe 0B       		.uleb128 0xb
 1515 00ff 3B       		.uleb128 0x3b
 1516 0100 0B       		.uleb128 0xb
 1517 0101 27       		.uleb128 0x27
 1518 0102 0C       		.uleb128 0xc
 1519 0103 11       		.uleb128 0x11
 1520 0104 01       		.uleb128 0x1
 1521 0105 12       		.uleb128 0x12
 1522 0106 01       		.uleb128 0x1
 1523 0107 40       		.uleb128 0x40
 1524 0108 0A       		.uleb128 0xa
 1525 0109 00       		.byte	0
 1526 010a 00       		.byte	0
 1527 010b 16       		.uleb128 0x16
 1528 010c 2E       		.uleb128 0x2e
 1529 010d 01       		.byte	0x1
 1530 010e 3F       		.uleb128 0x3f
 1531 010f 0C       		.uleb128 0xc
 1532 0110 03       		.uleb128 0x3
 1533 0111 0E       		.uleb128 0xe
ARM GAS  /tmp/ccDVAA0L.s 			page 28


 1534 0112 3A       		.uleb128 0x3a
 1535 0113 0B       		.uleb128 0xb
 1536 0114 3B       		.uleb128 0x3b
 1537 0115 0B       		.uleb128 0xb
 1538 0116 27       		.uleb128 0x27
 1539 0117 0C       		.uleb128 0xc
 1540 0118 11       		.uleb128 0x11
 1541 0119 01       		.uleb128 0x1
 1542 011a 12       		.uleb128 0x12
 1543 011b 01       		.uleb128 0x1
 1544 011c 40       		.uleb128 0x40
 1545 011d 0A       		.uleb128 0xa
 1546 011e 01       		.uleb128 0x1
 1547 011f 13       		.uleb128 0x13
 1548 0120 00       		.byte	0
 1549 0121 00       		.byte	0
 1550 0122 17       		.uleb128 0x17
 1551 0123 05       		.uleb128 0x5
 1552 0124 00       		.byte	0
 1553 0125 03       		.uleb128 0x3
 1554 0126 0E       		.uleb128 0xe
 1555 0127 3A       		.uleb128 0x3a
 1556 0128 0B       		.uleb128 0xb
 1557 0129 3B       		.uleb128 0x3b
 1558 012a 0B       		.uleb128 0xb
 1559 012b 49       		.uleb128 0x49
 1560 012c 13       		.uleb128 0x13
 1561 012d 02       		.uleb128 0x2
 1562 012e 06       		.uleb128 0x6
 1563 012f 00       		.byte	0
 1564 0130 00       		.byte	0
 1565 0131 18       		.uleb128 0x18
 1566 0132 05       		.uleb128 0x5
 1567 0133 00       		.byte	0
 1568 0134 03       		.uleb128 0x3
 1569 0135 08       		.uleb128 0x8
 1570 0136 3A       		.uleb128 0x3a
 1571 0137 0B       		.uleb128 0xb
 1572 0138 3B       		.uleb128 0x3b
 1573 0139 0B       		.uleb128 0xb
 1574 013a 49       		.uleb128 0x49
 1575 013b 13       		.uleb128 0x13
 1576 013c 02       		.uleb128 0x2
 1577 013d 06       		.uleb128 0x6
 1578 013e 00       		.byte	0
 1579 013f 00       		.byte	0
 1580 0140 19       		.uleb128 0x19
 1581 0141 34       		.uleb128 0x34
 1582 0142 00       		.byte	0
 1583 0143 03       		.uleb128 0x3
 1584 0144 08       		.uleb128 0x8
 1585 0145 3A       		.uleb128 0x3a
 1586 0146 0B       		.uleb128 0xb
 1587 0147 3B       		.uleb128 0x3b
 1588 0148 0B       		.uleb128 0xb
 1589 0149 49       		.uleb128 0x49
 1590 014a 13       		.uleb128 0x13
ARM GAS  /tmp/ccDVAA0L.s 			page 29


 1591 014b 02       		.uleb128 0x2
 1592 014c 06       		.uleb128 0x6
 1593 014d 00       		.byte	0
 1594 014e 00       		.byte	0
 1595 014f 1A       		.uleb128 0x1a
 1596 0150 2E       		.uleb128 0x2e
 1597 0151 01       		.byte	0x1
 1598 0152 3F       		.uleb128 0x3f
 1599 0153 0C       		.uleb128 0xc
 1600 0154 03       		.uleb128 0x3
 1601 0155 0E       		.uleb128 0xe
 1602 0156 3A       		.uleb128 0x3a
 1603 0157 0B       		.uleb128 0xb
 1604 0158 3B       		.uleb128 0x3b
 1605 0159 0B       		.uleb128 0xb
 1606 015a 27       		.uleb128 0x27
 1607 015b 0C       		.uleb128 0xc
 1608 015c 49       		.uleb128 0x49
 1609 015d 13       		.uleb128 0x13
 1610 015e 11       		.uleb128 0x11
 1611 015f 01       		.uleb128 0x1
 1612 0160 12       		.uleb128 0x12
 1613 0161 01       		.uleb128 0x1
 1614 0162 40       		.uleb128 0x40
 1615 0163 06       		.uleb128 0x6
 1616 0164 01       		.uleb128 0x1
 1617 0165 13       		.uleb128 0x13
 1618 0166 00       		.byte	0
 1619 0167 00       		.byte	0
 1620 0168 1B       		.uleb128 0x1b
 1621 0169 2E       		.uleb128 0x2e
 1622 016a 01       		.byte	0x1
 1623 016b 3F       		.uleb128 0x3f
 1624 016c 0C       		.uleb128 0xc
 1625 016d 03       		.uleb128 0x3
 1626 016e 0E       		.uleb128 0xe
 1627 016f 3A       		.uleb128 0x3a
 1628 0170 0B       		.uleb128 0xb
 1629 0171 3B       		.uleb128 0x3b
 1630 0172 0B       		.uleb128 0xb
 1631 0173 27       		.uleb128 0x27
 1632 0174 0C       		.uleb128 0xc
 1633 0175 11       		.uleb128 0x11
 1634 0176 01       		.uleb128 0x1
 1635 0177 12       		.uleb128 0x12
 1636 0178 01       		.uleb128 0x1
 1637 0179 40       		.uleb128 0x40
 1638 017a 06       		.uleb128 0x6
 1639 017b 01       		.uleb128 0x1
 1640 017c 13       		.uleb128 0x13
 1641 017d 00       		.byte	0
 1642 017e 00       		.byte	0
 1643 017f 1C       		.uleb128 0x1c
 1644 0180 34       		.uleb128 0x34
 1645 0181 00       		.byte	0
 1646 0182 03       		.uleb128 0x3
 1647 0183 08       		.uleb128 0x8
ARM GAS  /tmp/ccDVAA0L.s 			page 30


 1648 0184 3A       		.uleb128 0x3a
 1649 0185 0B       		.uleb128 0xb
 1650 0186 3B       		.uleb128 0x3b
 1651 0187 0B       		.uleb128 0xb
 1652 0188 49       		.uleb128 0x49
 1653 0189 13       		.uleb128 0x13
 1654 018a 02       		.uleb128 0x2
 1655 018b 0A       		.uleb128 0xa
 1656 018c 00       		.byte	0
 1657 018d 00       		.byte	0
 1658 018e 1D       		.uleb128 0x1d
 1659 018f 34       		.uleb128 0x34
 1660 0190 00       		.byte	0
 1661 0191 03       		.uleb128 0x3
 1662 0192 0E       		.uleb128 0xe
 1663 0193 3A       		.uleb128 0x3a
 1664 0194 0B       		.uleb128 0xb
 1665 0195 3B       		.uleb128 0x3b
 1666 0196 0B       		.uleb128 0xb
 1667 0197 49       		.uleb128 0x49
 1668 0198 13       		.uleb128 0x13
 1669 0199 02       		.uleb128 0x2
 1670 019a 06       		.uleb128 0x6
 1671 019b 00       		.byte	0
 1672 019c 00       		.byte	0
 1673 019d 1E       		.uleb128 0x1e
 1674 019e 34       		.uleb128 0x34
 1675 019f 00       		.byte	0
 1676 01a0 03       		.uleb128 0x3
 1677 01a1 08       		.uleb128 0x8
 1678 01a2 3A       		.uleb128 0x3a
 1679 01a3 0B       		.uleb128 0xb
 1680 01a4 3B       		.uleb128 0x3b
 1681 01a5 0B       		.uleb128 0xb
 1682 01a6 49       		.uleb128 0x49
 1683 01a7 13       		.uleb128 0x13
 1684 01a8 00       		.byte	0
 1685 01a9 00       		.byte	0
 1686 01aa 1F       		.uleb128 0x1f
 1687 01ab 34       		.uleb128 0x34
 1688 01ac 00       		.byte	0
 1689 01ad 03       		.uleb128 0x3
 1690 01ae 0E       		.uleb128 0xe
 1691 01af 3A       		.uleb128 0x3a
 1692 01b0 0B       		.uleb128 0xb
 1693 01b1 3B       		.uleb128 0x3b
 1694 01b2 0B       		.uleb128 0xb
 1695 01b3 49       		.uleb128 0x49
 1696 01b4 13       		.uleb128 0x13
 1697 01b5 02       		.uleb128 0x2
 1698 01b6 0A       		.uleb128 0xa
 1699 01b7 00       		.byte	0
 1700 01b8 00       		.byte	0
 1701 01b9 00       		.byte	0
 1702              		.section	.debug_loc,"",%progbits
 1703              	.Ldebug_loc0:
 1704              	.LLST0:
ARM GAS  /tmp/ccDVAA0L.s 			page 31


 1705 0000 00000000 		.4byte	.LVL0
 1706 0004 0C000000 		.4byte	.LVL3
 1707 0008 0100     		.2byte	0x1
 1708 000a 50       		.byte	0x50
 1709 000b 0C000000 		.4byte	.LVL3
 1710 000f 13000000 		.4byte	.LVL7-1
 1711 0013 0300     		.2byte	0x3
 1712 0015 70       		.byte	0x70
 1713 0016 70       		.sleb128 -16
 1714 0017 9F       		.byte	0x9f
 1715 0018 00000000 		.4byte	0
 1716 001c 00000000 		.4byte	0
 1717              	.LLST1:
 1718 0020 00000000 		.4byte	.LVL0
 1719 0024 13000000 		.4byte	.LVL6-1
 1720 0028 0100     		.2byte	0x1
 1721 002a 51       		.byte	0x51
 1722 002b 00000000 		.4byte	0
 1723 002f 00000000 		.4byte	0
 1724              	.LLST2:
 1725 0033 00000000 		.4byte	.LVL0
 1726 0037 0A000000 		.4byte	.LVL2
 1727 003b 0100     		.2byte	0x1
 1728 003d 52       		.byte	0x52
 1729 003e 0A000000 		.4byte	.LVL2
 1730 0042 13000000 		.4byte	.LVL5-1
 1731 0046 0300     		.2byte	0x3
 1732 0048 72       		.byte	0x72
 1733 0049 08       		.sleb128 8
 1734 004a 9F       		.byte	0x9f
 1735 004b 00000000 		.4byte	0
 1736 004f 00000000 		.4byte	0
 1737              	.LLST3:
 1738 0053 04000000 		.4byte	.LVL1
 1739 0057 13000000 		.4byte	.LVL4-1
 1740 005b 0100     		.2byte	0x1
 1741 005d 51       		.byte	0x51
 1742 005e 00000000 		.4byte	0
 1743 0062 00000000 		.4byte	0
 1744              	.LLST4:
 1745 0066 00000000 		.4byte	.LFB9
 1746 006a 02000000 		.4byte	.LCFI0
 1747 006e 0200     		.2byte	0x2
 1748 0070 7D       		.byte	0x7d
 1749 0071 00       		.sleb128 0
 1750 0072 02000000 		.4byte	.LCFI0
 1751 0076 8E000000 		.4byte	.LFE9
 1752 007a 0200     		.2byte	0x2
 1753 007c 7D       		.byte	0x7d
 1754 007d 18       		.sleb128 24
 1755 007e 00000000 		.4byte	0
 1756 0082 00000000 		.4byte	0
 1757              	.LLST5:
 1758 0086 00000000 		.4byte	.LVL8
 1759 008a 16000000 		.4byte	.LVL10
 1760 008e 0100     		.2byte	0x1
 1761 0090 50       		.byte	0x50
ARM GAS  /tmp/ccDVAA0L.s 			page 32


 1762 0091 00000000 		.4byte	0
 1763 0095 00000000 		.4byte	0
 1764              	.LLST6:
 1765 0099 00000000 		.4byte	.LVL8
 1766 009d 12000000 		.4byte	.LVL9
 1767 00a1 0100     		.2byte	0x1
 1768 00a3 51       		.byte	0x51
 1769 00a4 12000000 		.4byte	.LVL9
 1770 00a8 1A000000 		.4byte	.LVL11
 1771 00ac 0300     		.2byte	0x3
 1772 00ae 71       		.byte	0x71
 1773 00af 79       		.sleb128 -7
 1774 00b0 9F       		.byte	0x9f
 1775 00b1 1A000000 		.4byte	.LVL11
 1776 00b5 8E000000 		.4byte	.LFE9
 1777 00b9 0100     		.2byte	0x1
 1778 00bb 56       		.byte	0x56
 1779 00bc 00000000 		.4byte	0
 1780 00c0 00000000 		.4byte	0
 1781              	.LLST7:
 1782 00c4 1E000000 		.4byte	.LVL12
 1783 00c8 5A000000 		.4byte	.LVL18
 1784 00cc 0100     		.2byte	0x1
 1785 00ce 55       		.byte	0x55
 1786 00cf 66000000 		.4byte	.LVL20
 1787 00d3 72000000 		.4byte	.LVL22
 1788 00d7 0100     		.2byte	0x1
 1789 00d9 55       		.byte	0x55
 1790 00da 00000000 		.4byte	0
 1791 00de 00000000 		.4byte	0
 1792              	.LLST8:
 1793 00e2 24000000 		.4byte	.LVL13
 1794 00e6 26000000 		.4byte	.LVL14
 1795 00ea 0100     		.2byte	0x1
 1796 00ec 53       		.byte	0x53
 1797 00ed 2A000000 		.4byte	.LVL15
 1798 00f1 5A000000 		.4byte	.LVL18
 1799 00f5 0200     		.2byte	0x2
 1800 00f7 75       		.byte	0x75
 1801 00f8 00       		.sleb128 0
 1802 00f9 5A000000 		.4byte	.LVL18
 1803 00fd 61000000 		.4byte	.LVL19-1
 1804 0101 0100     		.2byte	0x1
 1805 0103 53       		.byte	0x53
 1806 0104 61000000 		.4byte	.LVL19-1
 1807 0108 62000000 		.4byte	.LVL19
 1808 010c 0300     		.2byte	0x3
 1809 010e 75       		.byte	0x75
 1810 010f 78       		.sleb128 -8
 1811 0110 9F       		.byte	0x9f
 1812 0111 66000000 		.4byte	.LVL20
 1813 0115 6C000000 		.4byte	.LVL21
 1814 0119 0100     		.2byte	0x1
 1815 011b 53       		.byte	0x53
 1816 011c 7C000000 		.4byte	.LVL23
 1817 0120 8A000000 		.4byte	.LVL24
 1818 0124 0100     		.2byte	0x1
ARM GAS  /tmp/ccDVAA0L.s 			page 33


 1819 0126 50       		.byte	0x50
 1820 0127 8A000000 		.4byte	.LVL24
 1821 012b 8E000000 		.4byte	.LFE9
 1822 012f 0100     		.2byte	0x1
 1823 0131 55       		.byte	0x55
 1824 0132 00000000 		.4byte	0
 1825 0136 00000000 		.4byte	0
 1826              	.LLST9:
 1827 013a 4E000000 		.4byte	.LVL16
 1828 013e 58000000 		.4byte	.LVL17
 1829 0142 0100     		.2byte	0x1
 1830 0144 57       		.byte	0x57
 1831 0145 00000000 		.4byte	0
 1832 0149 00000000 		.4byte	0
 1833              	.LLST10:
 1834 014d 00000000 		.4byte	.LFB10
 1835 0151 02000000 		.4byte	.LCFI1
 1836 0155 0200     		.2byte	0x2
 1837 0157 7D       		.byte	0x7d
 1838 0158 00       		.sleb128 0
 1839 0159 02000000 		.4byte	.LCFI1
 1840 015d AA000000 		.4byte	.LFE10
 1841 0161 0200     		.2byte	0x2
 1842 0163 7D       		.byte	0x7d
 1843 0164 10       		.sleb128 16
 1844 0165 00000000 		.4byte	0
 1845 0169 00000000 		.4byte	0
 1846              	.LLST11:
 1847 016d 00000000 		.4byte	.LVL25
 1848 0171 08000000 		.4byte	.LVL26
 1849 0175 0100     		.2byte	0x1
 1850 0177 50       		.byte	0x50
 1851 0178 08000000 		.4byte	.LVL26
 1852 017c AA000000 		.4byte	.LFE10
 1853 0180 0100     		.2byte	0x1
 1854 0182 56       		.byte	0x56
 1855 0183 00000000 		.4byte	0
 1856 0187 00000000 		.4byte	0
 1857              	.LLST12:
 1858 018b 10000000 		.4byte	.LVL28
 1859 018f 18000000 		.4byte	.LVL30
 1860 0193 0100     		.2byte	0x1
 1861 0195 55       		.byte	0x55
 1862 0196 18000000 		.4byte	.LVL30
 1863 019a 34000000 		.4byte	.LVL31
 1864 019e 0100     		.2byte	0x1
 1865 01a0 53       		.byte	0x53
 1866 01a1 34000000 		.4byte	.LVL31
 1867 01a5 3C000000 		.4byte	.LVL32
 1868 01a9 0100     		.2byte	0x1
 1869 01ab 52       		.byte	0x52
 1870 01ac 3C000000 		.4byte	.LVL32
 1871 01b0 4A000000 		.4byte	.LVL33
 1872 01b4 0100     		.2byte	0x1
 1873 01b6 53       		.byte	0x53
 1874 01b7 4C000000 		.4byte	.LVL34
 1875 01bb 79000000 		.4byte	.LVL36-1
ARM GAS  /tmp/ccDVAA0L.s 			page 34


 1876 01bf 0100     		.2byte	0x1
 1877 01c1 53       		.byte	0x53
 1878 01c2 7A000000 		.4byte	.LVL36
 1879 01c6 AA000000 		.4byte	.LFE10
 1880 01ca 0100     		.2byte	0x1
 1881 01cc 53       		.byte	0x53
 1882 01cd 00000000 		.4byte	0
 1883 01d1 00000000 		.4byte	0
 1884              	.LLST13:
 1885 01d5 0C000000 		.4byte	.LVL27
 1886 01d9 15000000 		.4byte	.LVL29-1
 1887 01dd 0200     		.2byte	0x2
 1888 01df 76       		.byte	0x76
 1889 01e0 78       		.sleb128 -8
 1890 01e1 15000000 		.4byte	.LVL29-1
 1891 01e5 5E000000 		.4byte	.LVL35
 1892 01e9 0300     		.2byte	0x3
 1893 01eb 75       		.byte	0x75
 1894 01ec 78       		.sleb128 -8
 1895 01ed 9F       		.byte	0x9f
 1896 01ee 00000000 		.4byte	0
 1897 01f2 00000000 		.4byte	0
 1898              	.LLST14:
 1899 01f6 00000000 		.4byte	.LFB11
 1900 01fa 02000000 		.4byte	.LCFI2
 1901 01fe 0200     		.2byte	0x2
 1902 0200 7D       		.byte	0x7d
 1903 0201 00       		.sleb128 0
 1904 0202 02000000 		.4byte	.LCFI2
 1905 0206 3E000000 		.4byte	.LFE11
 1906 020a 0200     		.2byte	0x2
 1907 020c 7D       		.byte	0x7d
 1908 020d 10       		.sleb128 16
 1909 020e 00000000 		.4byte	0
 1910 0212 00000000 		.4byte	0
 1911              	.LLST15:
 1912 0216 00000000 		.4byte	.LVL37
 1913 021a 14000000 		.4byte	.LVL38
 1914 021e 0100     		.2byte	0x1
 1915 0220 50       		.byte	0x50
 1916 0221 00000000 		.4byte	0
 1917 0225 00000000 		.4byte	0
 1918              	.LLST16:
 1919 0229 00000000 		.4byte	.LVL37
 1920 022d 19000000 		.4byte	.LVL39-1
 1921 0231 0100     		.2byte	0x1
 1922 0233 51       		.byte	0x51
 1923 0234 19000000 		.4byte	.LVL39-1
 1924 0238 3E000000 		.4byte	.LFE11
 1925 023c 0100     		.2byte	0x1
 1926 023e 55       		.byte	0x55
 1927 023f 00000000 		.4byte	0
 1928 0243 00000000 		.4byte	0
 1929              	.LLST17:
 1930 0247 1A000000 		.4byte	.LVL39
 1931 024b 26000000 		.4byte	.LVL40
 1932 024f 0200     		.2byte	0x2
ARM GAS  /tmp/ccDVAA0L.s 			page 35


 1933 0251 30       		.byte	0x30
 1934 0252 9F       		.byte	0x9f
 1935 0253 2E000000 		.4byte	.LVL42
 1936 0257 32000000 		.4byte	.LVL43
 1937 025b 0100     		.2byte	0x1
 1938 025d 54       		.byte	0x54
 1939 025e 00000000 		.4byte	0
 1940 0262 00000000 		.4byte	0
 1941              	.LLST18:
 1942 0266 1A000000 		.4byte	.LVL39
 1943 026a 26000000 		.4byte	.LVL40
 1944 026e 0200     		.2byte	0x2
 1945 0270 30       		.byte	0x30
 1946 0271 9F       		.byte	0x9f
 1947 0272 2C000000 		.4byte	.LVL41
 1948 0276 32000000 		.4byte	.LVL43
 1949 027a 0100     		.2byte	0x1
 1950 027c 52       		.byte	0x52
 1951 027d 00000000 		.4byte	0
 1952 0281 00000000 		.4byte	0
 1953              		.section	.debug_aranges,"",%progbits
 1954 0000 3C000000 		.4byte	0x3c
 1955 0004 0200     		.2byte	0x2
 1956 0006 00000000 		.4byte	.Ldebug_info0
 1957 000a 04       		.byte	0x4
 1958 000b 00       		.byte	0
 1959 000c 0000     		.2byte	0
 1960 000e 0000     		.2byte	0
 1961 0010 00000000 		.4byte	.LFB7
 1962 0014 20000000 		.4byte	.LFE7-.LFB7
 1963 0018 00000000 		.4byte	.LFB8
 1964 001c 14000000 		.4byte	.LFE8-.LFB8
 1965 0020 00000000 		.4byte	.LFB9
 1966 0024 8E000000 		.4byte	.LFE9-.LFB9
 1967 0028 00000000 		.4byte	.LFB10
 1968 002c AA000000 		.4byte	.LFE10-.LFB10
 1969 0030 00000000 		.4byte	.LFB11
 1970 0034 3E000000 		.4byte	.LFE11-.LFB11
 1971 0038 00000000 		.4byte	0
 1972 003c 00000000 		.4byte	0
 1973              		.section	.debug_ranges,"",%progbits
 1974              	.Ldebug_ranges0:
 1975 0000 00000000 		.4byte	.LFB7
 1976 0004 20000000 		.4byte	.LFE7
 1977 0008 00000000 		.4byte	.LFB8
 1978 000c 14000000 		.4byte	.LFE8
 1979 0010 00000000 		.4byte	.LFB9
 1980 0014 8E000000 		.4byte	.LFE9
 1981 0018 00000000 		.4byte	.LFB10
 1982 001c AA000000 		.4byte	.LFE10
 1983 0020 00000000 		.4byte	.LFB11
 1984 0024 3E000000 		.4byte	.LFE11
 1985 0028 00000000 		.4byte	0
 1986 002c 00000000 		.4byte	0
 1987              		.section	.debug_line,"",%progbits
 1988              	.Ldebug_line0:
 1989 0000 83020000 		.section	.debug_str,"MS",%progbits,1
ARM GAS  /tmp/ccDVAA0L.s 			page 36


 1989      0200A401 
 1989      00000201 
 1989      FB0E0D00 
 1989      01010101 
 1990              	.LASF35:
 1991 0000 705F6D73 		.ascii	"p_msg\000"
 1991      6700
 1992              	.LASF2:
 1993 0006 73697A65 		.ascii	"size_t\000"
 1993      5F7400
 1994              	.LASF60:
 1995 000d 7264796D 		.ascii	"rdymsg\000"
 1995      736700
 1996              	.LASF12:
 1997 0014 75696E74 		.ascii	"uint64_t\000"
 1997      36345F74 
 1997      00
 1998              	.LASF50:
 1999 001d 6D656D67 		.ascii	"memgetfunc_t\000"
 1999      65746675 
 1999      6E635F74 
 1999      00
 2000              	.LASF13:
 2001 002a 6C6F6E67 		.ascii	"long long unsigned int\000"
 2001      206C6F6E 
 2001      6720756E 
 2001      7369676E 
 2001      65642069 
 2002              	.LASF61:
 2003 0041 65786974 		.ascii	"exitcode\000"
 2003      636F6465 
 2003      00
 2004              	.LASF54:
 2005 004a 685F6672 		.ascii	"h_free\000"
 2005      656500
 2006              	.LASF65:
 2007 0051 68656170 		.ascii	"heapp\000"
 2007      7000
 2008              	.LASF66:
 2009 0057 63684865 		.ascii	"chHeapInit\000"
 2009      6170496E 
 2009      697400
 2010              	.LASF56:
 2011 0062 6E657874 		.ascii	"next\000"
 2011      00
 2012              	.LASF24:
 2013 0067 705F7072 		.ascii	"p_prio\000"
 2013      696F00
 2014              	.LASF11:
 2015 006e 6C6F6E67 		.ascii	"long long int\000"
 2015      206C6F6E 
 2015      6720696E 
 2015      7400
 2016              	.LASF1:
 2017 007c 7369676E 		.ascii	"signed char\000"
 2017      65642063 
 2017      68617200 
ARM GAS  /tmp/ccDVAA0L.s 			page 37


 2018              	.LASF55:
 2019 0088 685F6D74 		.ascii	"h_mtx\000"
 2019      7800
 2020              	.LASF39:
 2021 008e 705F6D70 		.ascii	"p_mpool\000"
 2021      6F6F6C00 
 2022              	.LASF47:
 2023 0096 6D5F7175 		.ascii	"m_queue\000"
 2023      65756500 
 2024              	.LASF67:
 2025 009e 63684865 		.ascii	"chHeapFree\000"
 2025      61704672 
 2025      656500
 2026              	.LASF8:
 2027 00a9 6C6F6E67 		.ascii	"long int\000"
 2027      20696E74 
 2027      00
 2028              	.LASF73:
 2029 00b2 2E2E2F2E 		.ascii	"../../os/kernel/src/chheap.c\000"
 2029      2E2F6F73 
 2029      2F6B6572 
 2029      6E656C2F 
 2029      7372632F 
 2030              	.LASF15:
 2031 00cf 74737461 		.ascii	"tstate_t\000"
 2031      74655F74 
 2031      00
 2032              	.LASF26:
 2033 00d8 705F6E65 		.ascii	"p_newer\000"
 2033      77657200 
 2034              	.LASF42:
 2035 00e0 72656761 		.ascii	"regarm_t\000"
 2035      726D5F74 
 2035      00
 2036              	.LASF58:
 2037 00e9 616C6967 		.ascii	"align\000"
 2037      6E00
 2038              	.LASF0:
 2039 00ef 756E7369 		.ascii	"unsigned int\000"
 2039      676E6564 
 2039      20696E74 
 2039      00
 2040              	.LASF10:
 2041 00fc 6C6F6E67 		.ascii	"long unsigned int\000"
 2041      20756E73 
 2041      69676E65 
 2041      6420696E 
 2041      7400
 2042              	.LASF45:
 2043 010e 636F6E74 		.ascii	"context\000"
 2043      65787400 
 2044              	.LASF59:
 2045 0116 73697A65 		.ascii	"size\000"
 2045      00
 2046              	.LASF6:
 2047 011b 73686F72 		.ascii	"short unsigned int\000"
 2047      7420756E 
ARM GAS  /tmp/ccDVAA0L.s 			page 38


 2047      7369676E 
 2047      65642069 
 2047      6E7400
 2048              	.LASF18:
 2049 012e 6D73675F 		.ascii	"msg_t\000"
 2049      7400
 2050              	.LASF14:
 2051 0134 746D6F64 		.ascii	"tmode_t\000"
 2051      655F7400 
 2052              	.LASF41:
 2053 013c 54687265 		.ascii	"ThreadsList\000"
 2053      6164734C 
 2053      69737400 
 2054              	.LASF19:
 2055 0148 6576656E 		.ascii	"eventmask_t\000"
 2055      746D6173 
 2055      6B5F7400 
 2056              	.LASF46:
 2057 0154 4D757465 		.ascii	"Mutex\000"
 2057      7800
 2058              	.LASF43:
 2059 015a 73746B61 		.ascii	"stkalign_t\000"
 2059      6C69676E 
 2059      5F7400
 2060              	.LASF27:
 2061 0165 705F6F6C 		.ascii	"p_older\000"
 2061      64657200 
 2062              	.LASF40:
 2063 016d 54687265 		.ascii	"ThreadsQueue\000"
 2063      61647351 
 2063      75657565 
 2063      00
 2064              	.LASF51:
 2065 017a 4D656D6F 		.ascii	"MemoryHeap\000"
 2065      72794865 
 2065      617000
 2066              	.LASF16:
 2067 0185 74726566 		.ascii	"trefs_t\000"
 2067      735F7400 
 2068              	.LASF23:
 2069 018d 705F7072 		.ascii	"p_prev\000"
 2069      657600
 2070              	.LASF17:
 2071 0194 74707269 		.ascii	"tprio_t\000"
 2071      6F5F7400 
 2072              	.LASF74:
 2073 019c 2F686F6D 		.ascii	"/home/laura/Documentos/Embebidos/Proyecto/ChibiOS_f"
 2073      652F6C61 
 2073      7572612F 
 2073      446F6375 
 2073      6D656E74 
 2074 01cf 696E616C 		.ascii	"inal2/iflab_code/stamp_code\000"
 2074      322F6966 
 2074      6C61625F 
 2074      636F6465 
 2074      2F737461 
 2075              	.LASF7:
ARM GAS  /tmp/ccDVAA0L.s 			page 39


 2076 01eb 696E7433 		.ascii	"int32_t\000"
 2076      325F7400 
 2077              	.LASF4:
 2078 01f3 756E7369 		.ascii	"unsigned char\000"
 2078      676E6564 
 2078      20636861 
 2078      7200
 2079              	.LASF53:
 2080 0201 685F7072 		.ascii	"h_provider\000"
 2080      6F766964 
 2080      657200
 2081              	.LASF37:
 2082 020c 705F6D74 		.ascii	"p_mtxlist\000"
 2082      786C6973 
 2082      7400
 2083              	.LASF5:
 2084 0216 73686F72 		.ascii	"short int\000"
 2084      7420696E 
 2084      7400
 2085              	.LASF29:
 2086 0220 705F7374 		.ascii	"p_state\000"
 2086      61746500 
 2087              	.LASF75:
 2088 0228 68656170 		.ascii	"heap_header\000"
 2088      5F686561 
 2088      64657200 
 2089              	.LASF63:
 2090 0234 65776D61 		.ascii	"ewmask\000"
 2090      736B00
 2091              	.LASF22:
 2092 023b 705F6E65 		.ascii	"p_next\000"
 2092      787400
 2093              	.LASF30:
 2094 0242 705F666C 		.ascii	"p_flags\000"
 2094      61677300 
 2095              	.LASF21:
 2096 024a 54687265 		.ascii	"Thread\000"
 2096      616400
 2097              	.LASF68:
 2098 0251 63684865 		.ascii	"chHeapAlloc\000"
 2098      6170416C 
 2098      6C6F6300 
 2099              	.LASF36:
 2100 025d 705F6570 		.ascii	"p_epending\000"
 2100      656E6469 
 2100      6E6700
 2101              	.LASF9:
 2102 0268 75696E74 		.ascii	"uint32_t\000"
 2102      33325F74 
 2102      00
 2103              	.LASF72:
 2104 0271 474E5520 		.ascii	"GNU C 4.6.1\000"
 2104      4320342E 
 2104      362E3100 
 2105              	.LASF57:
 2106 027d 68656170 		.ascii	"heap\000"
 2106      00
ARM GAS  /tmp/ccDVAA0L.s 			page 40


 2107              	.LASF71:
 2108 0282 64656661 		.ascii	"default_heap\000"
 2108      756C745F 
 2108      68656170 
 2108      00
 2109              	.LASF64:
 2110 028f 63686172 		.ascii	"char\000"
 2110      00
 2111              	.LASF69:
 2112 0294 63684865 		.ascii	"chHeapStatus\000"
 2112      61705374 
 2112      61747573 
 2112      00
 2113              	.LASF49:
 2114 02a1 6D5F6E65 		.ascii	"m_next\000"
 2114      787400
 2115              	.LASF20:
 2116 02a8 73797374 		.ascii	"systime_t\000"
 2116      696D655F 
 2116      7400
 2117              	.LASF38:
 2118 02b2 705F7265 		.ascii	"p_realprio\000"
 2118      616C7072 
 2118      696F00
 2119              	.LASF32:
 2120 02bd 705F7469 		.ascii	"p_time\000"
 2120      6D6500
 2121              	.LASF44:
 2122 02c4 696E7463 		.ascii	"intctx\000"
 2122      747800
 2123              	.LASF34:
 2124 02cb 705F6D73 		.ascii	"p_msgqueue\000"
 2124      67717565 
 2124      756500
 2125              	.LASF31:
 2126 02d6 705F7265 		.ascii	"p_refs\000"
 2126      667300
 2127              	.LASF3:
 2128 02dd 75696E74 		.ascii	"uint8_t\000"
 2128      385F7400 
 2129              	.LASF62:
 2130 02e5 77746F62 		.ascii	"wtobjp\000"
 2130      6A7000
 2131              	.LASF70:
 2132 02ec 73697A65 		.ascii	"sizep\000"
 2132      7000
 2133              	.LASF28:
 2134 02f2 705F6E61 		.ascii	"p_name\000"
 2134      6D6500
 2135              	.LASF76:
 2136 02f9 5F686561 		.ascii	"_heap_init\000"
 2136      705F696E 
 2136      697400
 2137              	.LASF48:
 2138 0304 6D5F6F77 		.ascii	"m_owner\000"
 2138      6E657200 
 2139              	.LASF25:
ARM GAS  /tmp/ccDVAA0L.s 			page 41


 2140 030c 705F6374 		.ascii	"p_ctx\000"
 2140      7800
 2141              	.LASF33:
 2142 0312 705F7761 		.ascii	"p_waiting\000"
 2142      6974696E 
 2142      6700
 2143              	.LASF52:
 2144 031c 6D656D6F 		.ascii	"memory_heap\000"
 2144      72795F68 
 2144      65617000 
 2145              		.ident	"GCC: (Sourcery CodeBench Lite 2011.09-69) 4.6.1"
ARM GAS  /tmp/ccDVAA0L.s 			page 42


DEFINED SYMBOLS
                            *ABS*:00000000 chheap.c
     /tmp/ccDVAA0L.s:19     .text._heap_init:00000000 $t
     /tmp/ccDVAA0L.s:25     .text._heap_init:00000000 _heap_init
     /tmp/ccDVAA0L.s:433    .bss.default_heap:00000000 .LANCHOR0
     /tmp/ccDVAA0L.s:56     .text.chHeapInit:00000000 $t
     /tmp/ccDVAA0L.s:62     .text.chHeapInit:00000000 chHeapInit
     /tmp/ccDVAA0L.s:99     .text.chHeapAlloc:00000000 $t
     /tmp/ccDVAA0L.s:105    .text.chHeapAlloc:00000000 chHeapAlloc
     /tmp/ccDVAA0L.s:228    .text.chHeapFree:00000000 $t
     /tmp/ccDVAA0L.s:234    .text.chHeapFree:00000000 chHeapFree
     /tmp/ccDVAA0L.s:359    .text.chHeapStatus:00000000 $t
     /tmp/ccDVAA0L.s:365    .text.chHeapStatus:00000000 chHeapStatus
     /tmp/ccDVAA0L.s:432    .bss.default_heap:00000000 $d
     /tmp/ccDVAA0L.s:436    .bss.default_heap:00000000 default_heap
                     .debug_frame:00000010 $d

UNDEFINED SYMBOLS
chCoreAlloc
chMtxInit
chMtxLock
chMtxUnlock
